%!PS-Adobe-2.0 EPSF-2.0
%%Title: Graphs/sph_density.eps
%%Creator: gnuplot 5.2 patchlevel 7
%%CreationDate: Mon Feb 24 08:33:57 2020
%%DocumentFonts: (atend)
%%BoundingBox: 50 50 1058 410
%%EndComments
%%BeginProlog
/gnudict 256 dict def
gnudict begin
%
% The following true/false flags may be edited by hand if desired.
% The unit line width and grayscale image gamma correction may also be changed.
%
/Color true def
/Blacktext false def
/Solid false def
/Dashlength 1 def
/Landscape false def
/Level1 false def
/Level3 false def
/Rounded false def
/ClipToBoundingBox false def
/SuppressPDFMark false def
/TransparentPatterns false def
/gnulinewidth 5.000 def
/userlinewidth gnulinewidth def
/Gamma 1.0 def
/BackgroundColor {-1.000 -1.000 -1.000} def
%
/vshift -66 def
/dl1 {
  10.0 Dashlength userlinewidth gnulinewidth div mul mul mul
  Rounded { currentlinewidth 0.75 mul sub dup 0 le { pop 0.01 } if } if
} def
/dl2 {
  10.0 Dashlength userlinewidth gnulinewidth div mul mul mul
  Rounded { currentlinewidth 0.75 mul add } if
} def
/hpt_ 31.5 def
/vpt_ 31.5 def
/hpt hpt_ def
/vpt vpt_ def
/doclip {
  ClipToBoundingBox {
    newpath 50 50 moveto 1058 50 lineto 1058 410 lineto 50 410 lineto closepath
    clip
  } if
} def
%
% Gnuplot Prolog Version 5.2 (Dec 2017)
%
%/SuppressPDFMark true def
%
/M {moveto} bind def
/L {lineto} bind def
/R {rmoveto} bind def
/V {rlineto} bind def
/N {newpath moveto} bind def
/Z {closepath} bind def
/C {setrgbcolor} bind def
/f {rlineto fill} bind def
/g {setgray} bind def
/Gshow {show} def   % May be redefined later in the file to support UTF-8
/vpt2 vpt 2 mul def
/hpt2 hpt 2 mul def
/Lshow {currentpoint stroke M 0 vshift R 
	Blacktext {gsave 0 setgray textshow grestore} {textshow} ifelse} def
/Rshow {currentpoint stroke M dup stringwidth pop neg vshift R
	Blacktext {gsave 0 setgray textshow grestore} {textshow} ifelse} def
/Cshow {currentpoint stroke M dup stringwidth pop -2 div vshift R 
	Blacktext {gsave 0 setgray textshow grestore} {textshow} ifelse} def
/UP {dup vpt_ mul /vpt exch def hpt_ mul /hpt exch def
  /hpt2 hpt 2 mul def /vpt2 vpt 2 mul def} def
/DL {Color {setrgbcolor Solid {pop []} if 0 setdash}
 {pop pop pop 0 setgray Solid {pop []} if 0 setdash} ifelse} def
/BL {stroke userlinewidth 2 mul setlinewidth
	Rounded {1 setlinejoin 1 setlinecap} if} def
/AL {stroke userlinewidth 2 div setlinewidth
	Rounded {1 setlinejoin 1 setlinecap} if} def
/UL {dup gnulinewidth mul /userlinewidth exch def
	dup 1 lt {pop 1} if 10 mul /udl exch def} def
/PL {stroke userlinewidth setlinewidth
	Rounded {1 setlinejoin 1 setlinecap} if} def
3.8 setmiterlimit
% Classic Line colors (version 5.0)
/LCw {1 1 1} def
/LCb {0 0 0} def
/LCa {0 0 0} def
/LC0 {1 0 0} def
/LC1 {0 1 0} def
/LC2 {0 0 1} def
/LC3 {1 0 1} def
/LC4 {0 1 1} def
/LC5 {1 1 0} def
/LC6 {0 0 0} def
/LC7 {1 0.3 0} def
/LC8 {0.5 0.5 0.5} def
% Default dash patterns (version 5.0)
/LTB {BL [] LCb DL} def
/LTw {PL [] 1 setgray} def
/LTb {PL [] LCb DL} def
/LTa {AL [1 udl mul 2 udl mul] 0 setdash LCa setrgbcolor} def
/LT0 {PL [] LC0 DL} def
/LT1 {PL [2 dl1 3 dl2] LC1 DL} def
/LT2 {PL [1 dl1 1.5 dl2] LC2 DL} def
/LT3 {PL [6 dl1 2 dl2 1 dl1 2 dl2] LC3 DL} def
/LT4 {PL [1 dl1 2 dl2 6 dl1 2 dl2 1 dl1 2 dl2] LC4 DL} def
/LT5 {PL [4 dl1 2 dl2] LC5 DL} def
/LT6 {PL [1.5 dl1 1.5 dl2 1.5 dl1 1.5 dl2 1.5 dl1 6 dl2] LC6 DL} def
/LT7 {PL [3 dl1 3 dl2 1 dl1 3 dl2] LC7 DL} def
/LT8 {PL [2 dl1 2 dl2 2 dl1 6 dl2] LC8 DL} def
/SL {[] 0 setdash} def
/Pnt {stroke [] 0 setdash gsave 1 setlinecap M 0 0 V stroke grestore} def
/Dia {stroke [] 0 setdash 2 copy vpt add M
  hpt neg vpt neg V hpt vpt neg V
  hpt vpt V hpt neg vpt V closepath stroke
  Pnt} def
/Pls {stroke [] 0 setdash vpt sub M 0 vpt2 V
  currentpoint stroke M
  hpt neg vpt neg R hpt2 0 V stroke
 } def
/Box {stroke [] 0 setdash 2 copy exch hpt sub exch vpt add M
  0 vpt2 neg V hpt2 0 V 0 vpt2 V
  hpt2 neg 0 V closepath stroke
  Pnt} def
/Crs {stroke [] 0 setdash exch hpt sub exch vpt add M
  hpt2 vpt2 neg V currentpoint stroke M
  hpt2 neg 0 R hpt2 vpt2 V stroke} def
/TriU {stroke [] 0 setdash 2 copy vpt 1.12 mul add M
  hpt neg vpt -1.62 mul V
  hpt 2 mul 0 V
  hpt neg vpt 1.62 mul V closepath stroke
  Pnt} def
/Star {2 copy Pls Crs} def
/BoxF {stroke [] 0 setdash exch hpt sub exch vpt add M
  0 vpt2 neg V hpt2 0 V 0 vpt2 V
  hpt2 neg 0 V closepath fill} def
/TriUF {stroke [] 0 setdash vpt 1.12 mul add M
  hpt neg vpt -1.62 mul V
  hpt 2 mul 0 V
  hpt neg vpt 1.62 mul V closepath fill} def
/TriD {stroke [] 0 setdash 2 copy vpt 1.12 mul sub M
  hpt neg vpt 1.62 mul V
  hpt 2 mul 0 V
  hpt neg vpt -1.62 mul V closepath stroke
  Pnt} def
/TriDF {stroke [] 0 setdash vpt 1.12 mul sub M
  hpt neg vpt 1.62 mul V
  hpt 2 mul 0 V
  hpt neg vpt -1.62 mul V closepath fill} def
/DiaF {stroke [] 0 setdash vpt add M
  hpt neg vpt neg V hpt vpt neg V
  hpt vpt V hpt neg vpt V closepath fill} def
/Pent {stroke [] 0 setdash 2 copy gsave
  translate 0 hpt M 4 {72 rotate 0 hpt L} repeat
  closepath stroke grestore Pnt} def
/PentF {stroke [] 0 setdash gsave
  translate 0 hpt M 4 {72 rotate 0 hpt L} repeat
  closepath fill grestore} def
/Circle {stroke [] 0 setdash 2 copy
  hpt 0 360 arc stroke Pnt} def
/CircleF {stroke [] 0 setdash hpt 0 360 arc fill} def
/C0 {BL [] 0 setdash 2 copy moveto vpt 90 450 arc} bind def
/C1 {BL [] 0 setdash 2 copy moveto
	2 copy vpt 0 90 arc closepath fill
	vpt 0 360 arc closepath} bind def
/C2 {BL [] 0 setdash 2 copy moveto
	2 copy vpt 90 180 arc closepath fill
	vpt 0 360 arc closepath} bind def
/C3 {BL [] 0 setdash 2 copy moveto
	2 copy vpt 0 180 arc closepath fill
	vpt 0 360 arc closepath} bind def
/C4 {BL [] 0 setdash 2 copy moveto
	2 copy vpt 180 270 arc closepath fill
	vpt 0 360 arc closepath} bind def
/C5 {BL [] 0 setdash 2 copy moveto
	2 copy vpt 0 90 arc
	2 copy moveto
	2 copy vpt 180 270 arc closepath fill
	vpt 0 360 arc} bind def
/C6 {BL [] 0 setdash 2 copy moveto
	2 copy vpt 90 270 arc closepath fill
	vpt 0 360 arc closepath} bind def
/C7 {BL [] 0 setdash 2 copy moveto
	2 copy vpt 0 270 arc closepath fill
	vpt 0 360 arc closepath} bind def
/C8 {BL [] 0 setdash 2 copy moveto
	2 copy vpt 270 360 arc closepath fill
	vpt 0 360 arc closepath} bind def
/C9 {BL [] 0 setdash 2 copy moveto
	2 copy vpt 270 450 arc closepath fill
	vpt 0 360 arc closepath} bind def
/C10 {BL [] 0 setdash 2 copy 2 copy moveto vpt 270 360 arc closepath fill
	2 copy moveto
	2 copy vpt 90 180 arc closepath fill
	vpt 0 360 arc closepath} bind def
/C11 {BL [] 0 setdash 2 copy moveto
	2 copy vpt 0 180 arc closepath fill
	2 copy moveto
	2 copy vpt 270 360 arc closepath fill
	vpt 0 360 arc closepath} bind def
/C12 {BL [] 0 setdash 2 copy moveto
	2 copy vpt 180 360 arc closepath fill
	vpt 0 360 arc closepath} bind def
/C13 {BL [] 0 setdash 2 copy moveto
	2 copy vpt 0 90 arc closepath fill
	2 copy moveto
	2 copy vpt 180 360 arc closepath fill
	vpt 0 360 arc closepath} bind def
/C14 {BL [] 0 setdash 2 copy moveto
	2 copy vpt 90 360 arc closepath fill
	vpt 0 360 arc} bind def
/C15 {BL [] 0 setdash 2 copy vpt 0 360 arc closepath fill
	vpt 0 360 arc closepath} bind def
/Rec {newpath 4 2 roll moveto 1 index 0 rlineto 0 exch rlineto
	neg 0 rlineto closepath} bind def
/Square {dup Rec} bind def
/Bsquare {vpt sub exch vpt sub exch vpt2 Square} bind def
/S0 {BL [] 0 setdash 2 copy moveto 0 vpt rlineto BL Bsquare} bind def
/S1 {BL [] 0 setdash 2 copy vpt Square fill Bsquare} bind def
/S2 {BL [] 0 setdash 2 copy exch vpt sub exch vpt Square fill Bsquare} bind def
/S3 {BL [] 0 setdash 2 copy exch vpt sub exch vpt2 vpt Rec fill Bsquare} bind def
/S4 {BL [] 0 setdash 2 copy exch vpt sub exch vpt sub vpt Square fill Bsquare} bind def
/S5 {BL [] 0 setdash 2 copy 2 copy vpt Square fill
	exch vpt sub exch vpt sub vpt Square fill Bsquare} bind def
/S6 {BL [] 0 setdash 2 copy exch vpt sub exch vpt sub vpt vpt2 Rec fill Bsquare} bind def
/S7 {BL [] 0 setdash 2 copy exch vpt sub exch vpt sub vpt vpt2 Rec fill
	2 copy vpt Square fill Bsquare} bind def
/S8 {BL [] 0 setdash 2 copy vpt sub vpt Square fill Bsquare} bind def
/S9 {BL [] 0 setdash 2 copy vpt sub vpt vpt2 Rec fill Bsquare} bind def
/S10 {BL [] 0 setdash 2 copy vpt sub vpt Square fill 2 copy exch vpt sub exch vpt Square fill
	Bsquare} bind def
/S11 {BL [] 0 setdash 2 copy vpt sub vpt Square fill 2 copy exch vpt sub exch vpt2 vpt Rec fill
	Bsquare} bind def
/S12 {BL [] 0 setdash 2 copy exch vpt sub exch vpt sub vpt2 vpt Rec fill Bsquare} bind def
/S13 {BL [] 0 setdash 2 copy exch vpt sub exch vpt sub vpt2 vpt Rec fill
	2 copy vpt Square fill Bsquare} bind def
/S14 {BL [] 0 setdash 2 copy exch vpt sub exch vpt sub vpt2 vpt Rec fill
	2 copy exch vpt sub exch vpt Square fill Bsquare} bind def
/S15 {BL [] 0 setdash 2 copy Bsquare fill Bsquare} bind def
/D0 {gsave translate 45 rotate 0 0 S0 stroke grestore} bind def
/D1 {gsave translate 45 rotate 0 0 S1 stroke grestore} bind def
/D2 {gsave translate 45 rotate 0 0 S2 stroke grestore} bind def
/D3 {gsave translate 45 rotate 0 0 S3 stroke grestore} bind def
/D4 {gsave translate 45 rotate 0 0 S4 stroke grestore} bind def
/D5 {gsave translate 45 rotate 0 0 S5 stroke grestore} bind def
/D6 {gsave translate 45 rotate 0 0 S6 stroke grestore} bind def
/D7 {gsave translate 45 rotate 0 0 S7 stroke grestore} bind def
/D8 {gsave translate 45 rotate 0 0 S8 stroke grestore} bind def
/D9 {gsave translate 45 rotate 0 0 S9 stroke grestore} bind def
/D10 {gsave translate 45 rotate 0 0 S10 stroke grestore} bind def
/D11 {gsave translate 45 rotate 0 0 S11 stroke grestore} bind def
/D12 {gsave translate 45 rotate 0 0 S12 stroke grestore} bind def
/D13 {gsave translate 45 rotate 0 0 S13 stroke grestore} bind def
/D14 {gsave translate 45 rotate 0 0 S14 stroke grestore} bind def
/D15 {gsave translate 45 rotate 0 0 S15 stroke grestore} bind def
/DiaE {stroke [] 0 setdash vpt add M
  hpt neg vpt neg V hpt vpt neg V
  hpt vpt V hpt neg vpt V closepath stroke} def
/BoxE {stroke [] 0 setdash exch hpt sub exch vpt add M
  0 vpt2 neg V hpt2 0 V 0 vpt2 V
  hpt2 neg 0 V closepath stroke} def
/TriUE {stroke [] 0 setdash vpt 1.12 mul add M
  hpt neg vpt -1.62 mul V
  hpt 2 mul 0 V
  hpt neg vpt 1.62 mul V closepath stroke} def
/TriDE {stroke [] 0 setdash vpt 1.12 mul sub M
  hpt neg vpt 1.62 mul V
  hpt 2 mul 0 V
  hpt neg vpt -1.62 mul V closepath stroke} def
/PentE {stroke [] 0 setdash gsave
  translate 0 hpt M 4 {72 rotate 0 hpt L} repeat
  closepath stroke grestore} def
/CircE {stroke [] 0 setdash 
  hpt 0 360 arc stroke} def
/Opaque {gsave closepath 1 setgray fill grestore 0 setgray closepath} def
/DiaW {stroke [] 0 setdash vpt add M
  hpt neg vpt neg V hpt vpt neg V
  hpt vpt V hpt neg vpt V Opaque stroke} def
/BoxW {stroke [] 0 setdash exch hpt sub exch vpt add M
  0 vpt2 neg V hpt2 0 V 0 vpt2 V
  hpt2 neg 0 V Opaque stroke} def
/TriUW {stroke [] 0 setdash vpt 1.12 mul add M
  hpt neg vpt -1.62 mul V
  hpt 2 mul 0 V
  hpt neg vpt 1.62 mul V Opaque stroke} def
/TriDW {stroke [] 0 setdash vpt 1.12 mul sub M
  hpt neg vpt 1.62 mul V
  hpt 2 mul 0 V
  hpt neg vpt -1.62 mul V Opaque stroke} def
/PentW {stroke [] 0 setdash gsave
  translate 0 hpt M 4 {72 rotate 0 hpt L} repeat
  Opaque stroke grestore} def
/CircW {stroke [] 0 setdash 
  hpt 0 360 arc Opaque stroke} def
/BoxFill {gsave Rec 1 setgray fill grestore} def
/Density {
  /Fillden exch def
  currentrgbcolor
  /ColB exch def /ColG exch def /ColR exch def
  /ColR ColR Fillden mul Fillden sub 1 add def
  /ColG ColG Fillden mul Fillden sub 1 add def
  /ColB ColB Fillden mul Fillden sub 1 add def
  ColR ColG ColB setrgbcolor} def
/BoxColFill {gsave Rec PolyFill} def
/PolyFill {gsave Density fill grestore grestore} def
/h {rlineto rlineto rlineto closepath gsave fill grestore stroke} bind def
%
% PostScript Level 1 Pattern Fill routine for rectangles
% Usage: x y w h s a XX PatternFill
%	x,y = lower left corner of box to be filled
%	w,h = width and height of box
%	  a = angle in degrees between lines and x-axis
%	 XX = 0/1 for no/yes cross-hatch
%
/PatternFill {gsave /PFa [ 9 2 roll ] def
  PFa 0 get PFa 2 get 2 div add PFa 1 get PFa 3 get 2 div add translate
  PFa 2 get -2 div PFa 3 get -2 div PFa 2 get PFa 3 get Rec
  TransparentPatterns {} {gsave 1 setgray fill grestore} ifelse
  clip
  currentlinewidth 0.5 mul setlinewidth
  /PFs PFa 2 get dup mul PFa 3 get dup mul add sqrt def
  0 0 M PFa 5 get rotate PFs -2 div dup translate
  0 1 PFs PFa 4 get div 1 add floor cvi
	{PFa 4 get mul 0 M 0 PFs V} for
  0 PFa 6 get ne {
	0 1 PFs PFa 4 get div 1 add floor cvi
	{PFa 4 get mul 0 2 1 roll M PFs 0 V} for
 } if
  stroke grestore} def
%
/languagelevel where
 {pop languagelevel} {1} ifelse
dup 2 lt
	{/InterpretLevel1 true def
	 /InterpretLevel3 false def}
	{/InterpretLevel1 Level1 def
	 2 gt
	    {/InterpretLevel3 Level3 def}
	    {/InterpretLevel3 false def}
	 ifelse }
 ifelse
%
% PostScript level 2 pattern fill definitions
%
/Level2PatternFill {
/Tile8x8 {/PaintType 2 /PatternType 1 /TilingType 1 /BBox [0 0 8 8] /XStep 8 /YStep 8}
	bind def
/KeepColor {currentrgbcolor [/Pattern /DeviceRGB] setcolorspace} bind def
<< Tile8x8
 /PaintProc {0.5 setlinewidth pop 0 0 M 8 8 L 0 8 M 8 0 L stroke} 
>> matrix makepattern
/Pat1 exch def
<< Tile8x8
 /PaintProc {0.5 setlinewidth pop 0 0 M 8 8 L 0 8 M 8 0 L stroke
	0 4 M 4 8 L 8 4 L 4 0 L 0 4 L stroke}
>> matrix makepattern
/Pat2 exch def
<< Tile8x8
 /PaintProc {0.5 setlinewidth pop 0 0 M 0 8 L
	8 8 L 8 0 L 0 0 L fill}
>> matrix makepattern
/Pat3 exch def
<< Tile8x8
 /PaintProc {0.5 setlinewidth pop -4 8 M 8 -4 L
	0 12 M 12 0 L stroke}
>> matrix makepattern
/Pat4 exch def
<< Tile8x8
 /PaintProc {0.5 setlinewidth pop -4 0 M 8 12 L
	0 -4 M 12 8 L stroke}
>> matrix makepattern
/Pat5 exch def
<< Tile8x8
 /PaintProc {0.5 setlinewidth pop -2 8 M 4 -4 L
	0 12 M 8 -4 L 4 12 M 10 0 L stroke}
>> matrix makepattern
/Pat6 exch def
<< Tile8x8
 /PaintProc {0.5 setlinewidth pop -2 0 M 4 12 L
	0 -4 M 8 12 L 4 -4 M 10 8 L stroke}
>> matrix makepattern
/Pat7 exch def
<< Tile8x8
 /PaintProc {0.5 setlinewidth pop 8 -2 M -4 4 L
	12 0 M -4 8 L 12 4 M 0 10 L stroke}
>> matrix makepattern
/Pat8 exch def
<< Tile8x8
 /PaintProc {0.5 setlinewidth pop 0 -2 M 12 4 L
	-4 0 M 12 8 L -4 4 M 8 10 L stroke}
>> matrix makepattern
/Pat9 exch def
/Pattern1 {PatternBgnd KeepColor Pat1 setpattern} bind def
/Pattern2 {PatternBgnd KeepColor Pat2 setpattern} bind def
/Pattern3 {PatternBgnd KeepColor Pat3 setpattern} bind def
/Pattern4 {PatternBgnd KeepColor Landscape {Pat5} {Pat4} ifelse setpattern} bind def
/Pattern5 {PatternBgnd KeepColor Landscape {Pat4} {Pat5} ifelse setpattern} bind def
/Pattern6 {PatternBgnd KeepColor Landscape {Pat9} {Pat6} ifelse setpattern} bind def
/Pattern7 {PatternBgnd KeepColor Landscape {Pat8} {Pat7} ifelse setpattern} bind def
} def
%
%
%End of PostScript Level 2 code
%
/PatternBgnd {
  TransparentPatterns {} {gsave 1 setgray fill grestore} ifelse
} def
%
% Substitute for Level 2 pattern fill codes with
% grayscale if Level 2 support is not selected.
%
/Level1PatternFill {
/Pattern1 {0.250 Density} bind def
/Pattern2 {0.500 Density} bind def
/Pattern3 {0.750 Density} bind def
/Pattern4 {0.125 Density} bind def
/Pattern5 {0.375 Density} bind def
/Pattern6 {0.625 Density} bind def
/Pattern7 {0.875 Density} bind def
} def
%
% Now test for support of Level 2 code
%
Level1 {Level1PatternFill} {Level2PatternFill} ifelse
%
/Symbol-Oblique /Symbol findfont [1 0 .167 1 0 0] makefont
dup length dict begin {1 index /FID eq {pop pop} {def} ifelse} forall
currentdict end definefont pop
%
/Metrics {ExtendTextBox Gswidth} def
/Lwidth {currentpoint stroke M 0 vshift R Metrics} def
/Rwidth {currentpoint stroke M dup stringwidth pop neg vshift R Metrics} def
/Cwidth {currentpoint stroke M dup stringwidth pop -2 div vshift R Metrics} def
/GLwidth {currentpoint stroke M 0 vshift R {ExtendTextBox} forall} def
/GRwidth {currentpoint stroke M dup Gwidth vshift R {ExtendTextBox} forall} def
/GCwidth {currentpoint stroke M dup Gwidth 2 div vshift R {ExtendTextBox} forall} def
/GLwidth2 {0 Gwidth AddGlyphWidth} def
/GRwidth2 {Gwidth -1 mul 0 AddGlyphWidth} def
/GCwidth2 {Gwidth 2 div dup -1 mul AddGlyphWidth} def
/AddGlyphWidth { dup TBx2 gt {userdict /TBx2 3 -1 roll put} {pop} ifelse
                 dup TBx1 lt {userdict /TBx1 3 -1 roll put} {pop} ifelse } def
/MFshow {
   { dup 5 get 3 ge
     { 5 get 3 eq {gsave} {grestore} ifelse }
     {dup dup 0 get findfont exch 1 get scalefont setfont
     [ currentpoint ] exch dup 2 get 0 exch R dup 5 get 2 ne {dup dup 6
     get exch 4 get {textshow} {Metrics pop 0 R} ifelse }if dup 5 get 0 eq
     {dup 3 get {2 get neg 0 exch R pop} {pop aload pop M} ifelse} {dup 5
     get 1 eq {dup 2 get exch dup 3 get exch 6 get Gswidth pop -2 div
     dup 0 R} {dup 6 get Gswidth pop -2 div 0 R 6 get
     textshow 2 index {aload pop M neg 3 -1 roll neg R pop pop} {pop pop pop
     pop aload pop M} ifelse }ifelse }ifelse }
     ifelse }
   forall} def
/Gswidth {dup type /stringtype eq {stringwidth} {pop (n) stringwidth} ifelse} def
/MFwidth {0 exch { dup 5 get 3 ge { 5 get 3 eq { 0 } { pop } ifelse }
 {dup 3 get{dup dup 0 get findfont exch 1 get scalefont setfont
     6 get Gswidth pop add} {pop} ifelse} ifelse} forall} def
/MLshow { currentpoint stroke M
  0 exch R
  Blacktext {gsave 0 setgray MFshow grestore} {MFshow} ifelse } bind def
/MRshow { currentpoint stroke M
  exch dup MFwidth neg 3 -1 roll R
  Blacktext {gsave 0 setgray MFshow grestore} {MFshow} ifelse } bind def
/MCshow { currentpoint stroke M
  exch dup MFwidth -2 div 3 -1 roll R
  Blacktext {gsave 0 setgray MFshow grestore} {MFshow} ifelse } bind def
/XYsave    { [( ) 1 2 true false 3 ()] } bind def
/XYrestore { [( ) 1 2 true false 4 ()] } bind def
Level1 SuppressPDFMark or 
{} {
/SDict 10 dict def
systemdict /pdfmark known not {
  userdict /pdfmark systemdict /cleartomark get put
} if
SDict begin [
  /Title (Graphs/sph_density.eps)
  /Subject (gnuplot plot)
  /Creator (gnuplot 5.2 patchlevel 7)
%  /Producer (gnuplot)
%  /Keywords ()
  /CreationDate (Mon Feb 24 08:33:57 2020)
  /DOCINFO pdfmark
end
} ifelse
%
% Support for boxed text - Ethan A Merritt Sep 2016
%
/InitTextBox { userdict /TBy2 3 -1 roll put userdict /TBx2 3 -1 roll put
           userdict /TBy1 3 -1 roll put userdict /TBx1 3 -1 roll put
	   /Boxing true def } def
/ExtendTextBox { dup type /stringtype eq
    { Boxing { gsave dup false charpath pathbbox
      dup TBy2 gt {userdict /TBy2 3 -1 roll put} {pop} ifelse
      dup TBx2 gt {userdict /TBx2 3 -1 roll put} {pop} ifelse
      dup TBy1 lt {userdict /TBy1 3 -1 roll put} {pop} ifelse
      dup TBx1 lt {userdict /TBx1 3 -1 roll put} {pop} ifelse
      grestore } if }
    {} ifelse} def
/PopTextBox { newpath TBx1 TBxmargin sub TBy1 TBymargin sub M
               TBx1 TBxmargin sub TBy2 TBymargin add L
	       TBx2 TBxmargin add TBy2 TBymargin add L
	       TBx2 TBxmargin add TBy1 TBymargin sub L closepath } def
/DrawTextBox { PopTextBox stroke /Boxing false def} def
/FillTextBox { gsave PopTextBox fill grestore /Boxing false def} def
0 0 0 0 InitTextBox
/TBxmargin 20 def
/TBymargin 20 def
/Boxing false def
/textshow { ExtendTextBox Gshow } def
%
end
%%EndProlog
%%Page: 1 1
gnudict begin
gsave
doclip
50 50 translate
0.050 0.050 scale
0 setgray
newpath
(Times-Roman) findfont 200 scalefont setfont
BackgroundColor 0 lt 3 1 roll 0 lt exch 0 lt or or not {BackgroundColor C 1.000 0 0 20160.00 7200.00 BoxColFill} if
1.000 UL
LTb
LCb setrgbcolor
860 4440 M
63 0 V
5436 0 R
-63 0 V
stroke
740 4440 M
[ [(Times-Roman) 200.0 0.0 true true 0 (-10)]
] -66.7 MRshow
/Times-Roman findfont 200 scalefont setfont
/vshift -66 def
1.000 UL
LTb
LCb setrgbcolor
860 4952 M
63 0 V
5436 0 R
-63 0 V
stroke
740 4952 M
[ [(Times-Roman) 200.0 0.0 true true 0 (-8)]
] -66.7 MRshow
/Times-Roman findfont 200 scalefont setfont
1.000 UL
LTb
LCb setrgbcolor
860 5464 M
63 0 V
5436 0 R
-63 0 V
stroke
740 5464 M
[ [(Times-Roman) 200.0 0.0 true true 0 (-6)]
] -66.7 MRshow
/Times-Roman findfont 200 scalefont setfont
1.000 UL
LTb
LCb setrgbcolor
860 5975 M
63 0 V
5436 0 R
-63 0 V
stroke
740 5975 M
[ [(Times-Roman) 200.0 0.0 true true 0 (-4)]
] -66.7 MRshow
/Times-Roman findfont 200 scalefont setfont
1.000 UL
LTb
LCb setrgbcolor
860 6487 M
63 0 V
5436 0 R
-63 0 V
stroke
740 6487 M
[ [(Times-Roman) 200.0 0.0 true true 0 (-2)]
] -66.7 MRshow
/Times-Roman findfont 200 scalefont setfont
1.000 UL
LTb
LCb setrgbcolor
860 6999 M
63 0 V
5436 0 R
-63 0 V
stroke
740 6999 M
[ [(Times-Roman) 200.0 0.0 true true 0 ( 0)]
] -66.7 MRshow
/Times-Roman findfont 200 scalefont setfont
1.000 UL
LTb
LCb setrgbcolor
940 4440 M
0 63 V
0 2496 R
0 -63 V
stroke
940 4240 M
[ [(Times-Roman) 200.0 0.0 true true 0 ( 2)]
] -66.7 MCshow
/Times-Roman findfont 200 scalefont setfont
1.000 UL
LTb
LCb setrgbcolor
1743 4440 M
0 63 V
0 2496 R
0 -63 V
stroke
1743 4240 M
[ [(Times-Roman) 200.0 0.0 true true 0 ( 4)]
] -66.7 MCshow
/Times-Roman findfont 200 scalefont setfont
1.000 UL
LTb
LCb setrgbcolor
2546 4440 M
0 63 V
0 2496 R
0 -63 V
stroke
2546 4240 M
[ [(Times-Roman) 200.0 0.0 true true 0 ( 6)]
] -66.7 MCshow
/Times-Roman findfont 200 scalefont setfont
1.000 UL
LTb
LCb setrgbcolor
3349 4440 M
0 63 V
0 2496 R
0 -63 V
stroke
3349 4240 M
[ [(Times-Roman) 200.0 0.0 true true 0 ( 8)]
] -66.7 MCshow
/Times-Roman findfont 200 scalefont setfont
1.000 UL
LTb
LCb setrgbcolor
4151 4440 M
0 63 V
0 2496 R
0 -63 V
stroke
4151 4240 M
[ [(Times-Roman) 200.0 0.0 true true 0 ( 10)]
] -66.7 MCshow
/Times-Roman findfont 200 scalefont setfont
1.000 UL
LTb
LCb setrgbcolor
4954 4440 M
0 63 V
0 2496 R
0 -63 V
stroke
4954 4240 M
[ [(Times-Roman) 200.0 0.0 true true 0 ( 12)]
] -66.7 MCshow
/Times-Roman findfont 200 scalefont setfont
1.000 UL
LTb
LCb setrgbcolor
5757 4440 M
0 63 V
0 2496 R
0 -63 V
stroke
5757 4240 M
[ [(Times-Roman) 200.0 0.0 true true 0 ( 14)]
] -66.7 MCshow
/Times-Roman findfont 200 scalefont setfont
1.000 UL
LTb
LCb setrgbcolor
1.000 UL
LTB
LCb setrgbcolor
860 6999 N
0 -2559 V
5499 0 V
0 2559 V
-5499 0 V
Z stroke
1.000 UP
1.000 UL
LTb
LCb setrgbcolor
LCb setrgbcolor
280 5719 M
currentpoint gsave translate -270 rotate 0 0 moveto
[ [(Times-Roman) 200.0 0.0 true true 0 (J)]
[(Times-Roman) 160.0 -60.0 true true 0 (y)]
[(Times-Roman) 200.0 0.0 true true 0 ( \(10)]
[(Times-Roman) 160.0 100.0 true true 0 (-52)]
[(Times-Roman) 200.0 0.0 true true 0 ( G cm)]
[(Times-Roman) 160.0 100.0 true true 0 (-3)]
[(Times-Roman) 200.0 0.0 true true 0 (\))]
] -66.7 MCshow
grestore
/Times-Roman findfont 200 scalefont setfont
LTb
LCb setrgbcolor
3609 3940 M
[ [(Symbol) 200.0 0.0 true true 0 (r)]
[(Times-Roman) 200.0 0.0 true true 0 ( \(10)]
[(Times-Roman) 160.0 100.0 true true 0 (-19)]
[(Times-Roman) 200.0 0.0 true true 0 ( g cm)]
[(Times-Roman) 160.0 100.0 true true 0 (-3)]
[(Times-Roman) 200.0 0.0 true true 0 (\))]
] -86.7 MCshow
/Times-Roman findfont 200 scalefont setfont
LTb
% Begin plot #1
3.000 UL
LTb
LT8
LC8 setrgbcolor
895 6868 M
4 -1 V
5 -1 V
4 -1 V
5 -1 V
5 -1 V
4 -1 V
5 -2 V
5 -1 V
5 -1 V
4 -1 V
5 -1 V
5 -1 V
5 -1 V
5 -1 V
5 -2 V
5 -1 V
5 -1 V
5 -1 V
5 -1 V
5 -2 V
5 -1 V
5 -1 V
6 -1 V
5 -2 V
5 -1 V
5 -1 V
6 -2 V
5 -1 V
6 -1 V
5 -2 V
5 -1 V
6 -1 V
5 -2 V
6 -1 V
6 -1 V
5 -2 V
6 -1 V
6 -2 V
5 -1 V
6 -1 V
6 -2 V
6 -1 V
6 -2 V
6 -1 V
5 -2 V
6 -1 V
6 -2 V
7 -1 V
6 -2 V
6 -1 V
6 -2 V
6 -2 V
6 -1 V
7 -2 V
6 -1 V
6 -2 V
7 -2 V
6 -1 V
6 -2 V
7 -2 V
7 -1 V
6 -2 V
7 -2 V
6 -2 V
7 -1 V
7 -2 V
7 -2 V
6 -2 V
7 -2 V
7 -1 V
7 -2 V
7 -2 V
7 -2 V
7 -2 V
7 -2 V
7 -2 V
8 -2 V
7 -2 V
7 -2 V
8 -2 V
7 -2 V
7 -2 V
8 -2 V
7 -2 V
8 -2 V
7 -2 V
8 -2 V
8 -2 V
8 -2 V
7 -2 V
8 -2 V
8 -3 V
8 -2 V
8 -2 V
8 -2 V
8 -2 V
8 -3 V
8 -2 V
8 -2 V
9 -3 V
8 -2 V
8 -2 V
9 -3 V
8 -2 V
9 -3 V
8 -2 V
9 -2 V
9 -3 V
8 -2 V
9 -3 V
9 -3 V
9 -2 V
9 -3 V
9 -2 V
9 -3 V
9 -3 V
9 -2 V
9 -3 V
10 -3 V
9 -2 V
9 -3 V
10 -3 V
9 -3 V
10 -2 V
9 -3 V
10 -3 V
10 -3 V
10 -3 V
9 -3 V
10 -3 V
10 -3 V
10 -3 V
10 -3 V
10 -3 V
11 -3 V
10 -3 V
10 -3 V
11 -3 V
10 -4 V
11 -3 V
10 -3 V
11 -3 V
10 -4 V
11 -3 V
11 -3 V
11 -4 V
11 -3 V
11 -3 V
11 -4 V
11 -3 V
11 -4 V
12 -3 V
11 -4 V
12 -3 V
11 -4 V
12 -4 V
11 -3 V
12 -4 V
12 -4 V
12 -4 V
11 -3 V
12 -4 V
13 -4 V
12 -4 V
12 -4 V
12 -4 V
13 -4 V
12 -4 V
12 -4 V
13 -4 V
13 -4 V
12 -4 V
13 -4 V
13 -5 V
13 -4 V
13 -4 V
13 -4 V
14 -5 V
13 -4 V
13 -5 V
14 -4 V
13 -4 V
14 -5 V
13 -5 V
14 -4 V
14 -5 V
14 -4 V
14 -5 V
14 -5 V
14 -5 V
15 -4 V
14 -5 V
14 -5 V
15 -5 V
15 -5 V
14 -5 V
15 -5 V
15 -5 V
15 -5 V
15 -6 V
15 -5 V
15 -5 V
16 -5 V
15 -6 V
16 -5 V
15 -6 V
16 -5 V
16 -6 V
16 -5 V
16 -6 V
16 -5 V
16 -6 V
16 -6 V
17 -6 V
16 -6 V
17 -5 V
17 -6 V
16 -6 V
17 -6 V
17 -6 V
17 -7 V
17 -6 V
18 -6 V
17 -6 V
18 -7 V
17 -6 V
18 -6 V
18 -7 V
18 -6 V
18 -7 V
18 -7 V
18 -6 V
19 -7 V
18 -7 V
19 -7 V
18 -7 V
19 -7 V
19 -7 V
19 -7 V
19 -7 V
20 -7 V
19 -7 V
20 -8 V
19 -7 V
20 -7 V
20 -8 V
20 -8 V
20 -7 V
20 -8 V
stroke 3515 6037 M
20 -8 V
21 -7 V
21 -8 V
20 -8 V
21 -8 V
21 -8 V
21 -8 V
21 -8 V
22 -9 V
21 -8 V
22 -8 V
22 -9 V
21 -8 V
22 -9 V
23 -9 V
22 -8 V
22 -9 V
23 -9 V
22 -9 V
23 -9 V
23 -9 V
23 -9 V
23 -9 V
24 -10 V
23 -9 V
24 -9 V
24 -10 V
24 -10 V
24 -9 V
24 -10 V
24 -10 V
25 -10 V
24 -10 V
25 -10 V
25 -10 V
25 -10 V
26 -11 V
25 -10 V
26 -10 V
25 -11 V
26 -11 V
26 -10 V
26 -11 V
27 -11 V
26 -11 V
27 -11 V
27 -11 V
27 -12 V
27 -11 V
27 -11 V
28 -12 V
27 -12 V
28 -11 V
28 -12 V
28 -12 V
28 -12 V
29 -12 V
29 -12 V
28 -13 V
29 -12 V
30 -13 V
29 -12 V
29 -13 V
30 -13 V
30 -13 V
30 -13 V
30 -13 V
31 -13 V
30 -13 V
31 -14 V
31 -13 V
31 -14 V
32 -14 V
31 -14 V
32 -14 V
32 -14 V
32 -14 V
32 -14 V
33 -15 V
33 -14 V
32 -15 V
34 -15 V
33 -15 V
33 -15 V
34 -15 V
34 -15 V
34 -15 V
34 -16 V
35 -16 V
35 -15 V
35 -16 V
35 -16 V
35 -16 V
36 -17 V
35 -16 V
36 -17 V
37 -16 V
36 -17 V
37 -17 V
% End plot #1
% Begin plot #2
stroke
1.000 UL
LTb
0.00 0.62 0.45 C
% End plot #2
2.000 UL
LTb
LCb setrgbcolor
1.000 UL
LTB
LCb setrgbcolor
860 6999 N
0 -2559 V
5499 0 V
0 2559 V
-5499 0 V
Z stroke
1.000 UP
1.000 UL
LTb
LCb setrgbcolor
1.000 UL
LTb
LCb setrgbcolor
7700 4440 M
63 0 V
5316 0 R
-63 0 V
stroke
7580 4440 M
[ [(Times-Roman) 200.0 0.0 true true 0 (10)]
[(Times-Roman) 160.0 100.0 true true 0 ( -7)]
] -86.7 MRshow
/Times-Roman findfont 200 scalefont setfont
1.000 UL
LTb
LCb setrgbcolor
7700 4594 M
31 0 V
5348 0 R
-31 0 V
-5348 90 R
31 0 V
5348 0 R
-31 0 V
-5348 64 R
31 0 V
5348 0 R
-31 0 V
-5348 50 R
31 0 V
5348 0 R
-31 0 V
-5348 40 R
31 0 V
5348 0 R
-31 0 V
-5348 35 R
31 0 V
5348 0 R
-31 0 V
-5348 29 R
31 0 V
5348 0 R
-31 0 V
-5348 26 R
31 0 V
5348 0 R
-31 0 V
-5348 24 R
63 0 V
5316 0 R
-63 0 V
stroke
7580 4952 M
[ [(Times-Roman) 200.0 0.0 true true 0 (10)]
[(Times-Roman) 160.0 100.0 true true 0 ( -6)]
] -86.7 MRshow
/Times-Roman findfont 200 scalefont setfont
1.000 UL
LTb
LCb setrgbcolor
7700 5106 M
31 0 V
5348 0 R
-31 0 V
-5348 90 R
31 0 V
5348 0 R
-31 0 V
-5348 64 R
31 0 V
5348 0 R
-31 0 V
-5348 50 R
31 0 V
5348 0 R
-31 0 V
-5348 40 R
31 0 V
5348 0 R
-31 0 V
-5348 34 R
31 0 V
5348 0 R
-31 0 V
-5348 30 R
31 0 V
5348 0 R
-31 0 V
-5348 26 R
31 0 V
5348 0 R
-31 0 V
-5348 24 R
63 0 V
5316 0 R
-63 0 V
stroke
7580 5464 M
[ [(Times-Roman) 200.0 0.0 true true 0 (10)]
[(Times-Roman) 160.0 100.0 true true 0 ( -5)]
] -86.7 MRshow
/Times-Roman findfont 200 scalefont setfont
1.000 UL
LTb
LCb setrgbcolor
7700 5618 M
31 0 V
5348 0 R
-31 0 V
-5348 90 R
31 0 V
5348 0 R
-31 0 V
-5348 64 R
31 0 V
5348 0 R
-31 0 V
-5348 49 R
31 0 V
5348 0 R
-31 0 V
-5348 41 R
31 0 V
5348 0 R
-31 0 V
-5348 34 R
31 0 V
5348 0 R
-31 0 V
-5348 30 R
31 0 V
5348 0 R
-31 0 V
-5348 26 R
31 0 V
5348 0 R
-31 0 V
-5348 23 R
63 0 V
5316 0 R
-63 0 V
stroke
7580 5975 M
[ [(Times-Roman) 200.0 0.0 true true 0 (10)]
[(Times-Roman) 160.0 100.0 true true 0 ( -4)]
] -86.7 MRshow
/Times-Roman findfont 200 scalefont setfont
1.000 UL
LTb
LCb setrgbcolor
7700 6129 M
31 0 V
5348 0 R
-31 0 V
-5348 91 R
31 0 V
5348 0 R
-31 0 V
-5348 64 R
31 0 V
5348 0 R
-31 0 V
-5348 49 R
31 0 V
5348 0 R
-31 0 V
-5348 41 R
31 0 V
5348 0 R
-31 0 V
-5348 34 R
31 0 V
5348 0 R
-31 0 V
-5348 30 R
31 0 V
5348 0 R
-31 0 V
-5348 26 R
31 0 V
5348 0 R
-31 0 V
-5348 23 R
63 0 V
5316 0 R
-63 0 V
stroke
7580 6487 M
[ [(Times-Roman) 200.0 0.0 true true 0 (10)]
[(Times-Roman) 160.0 100.0 true true 0 ( -3)]
] -86.7 MRshow
/Times-Roman findfont 200 scalefont setfont
1.000 UL
LTb
LCb setrgbcolor
7700 6641 M
31 0 V
5348 0 R
-31 0 V
-5348 90 R
31 0 V
5348 0 R
-31 0 V
-5348 64 R
31 0 V
5348 0 R
-31 0 V
-5348 50 R
31 0 V
5348 0 R
-31 0 V
-5348 40 R
31 0 V
5348 0 R
-31 0 V
-5348 35 R
31 0 V
5348 0 R
-31 0 V
-5348 29 R
31 0 V
5348 0 R
-31 0 V
-5348 27 R
31 0 V
5348 0 R
-31 0 V
-5348 23 R
63 0 V
5316 0 R
-63 0 V
stroke
7580 6999 M
[ [(Times-Roman) 200.0 0.0 true true 0 (10)]
[(Times-Roman) 160.0 100.0 true true 0 ( -2)]
] -86.7 MRshow
/Times-Roman findfont 200 scalefont setfont
1.000 UL
LTb
LCb setrgbcolor
7779 4440 M
0 63 V
0 2496 R
0 -63 V
stroke
7779 4240 M
[ [(Times-Roman) 200.0 0.0 true true 0 ( 2)]
] -66.7 MCshow
/Times-Roman findfont 200 scalefont setfont
1.000 UL
LTb
LCb setrgbcolor
8564 4440 M
0 63 V
0 2496 R
0 -63 V
stroke
8564 4240 M
[ [(Times-Roman) 200.0 0.0 true true 0 ( 4)]
] -66.7 MCshow
/Times-Roman findfont 200 scalefont setfont
1.000 UL
LTb
LCb setrgbcolor
9349 4440 M
0 63 V
0 2496 R
0 -63 V
stroke
9349 4240 M
[ [(Times-Roman) 200.0 0.0 true true 0 ( 6)]
] -66.7 MCshow
/Times-Roman findfont 200 scalefont setfont
1.000 UL
LTb
LCb setrgbcolor
10134 4440 M
0 63 V
0 2496 R
0 -63 V
stroke
10134 4240 M
[ [(Times-Roman) 200.0 0.0 true true 0 ( 8)]
] -66.7 MCshow
/Times-Roman findfont 200 scalefont setfont
1.000 UL
LTb
LCb setrgbcolor
10920 4440 M
0 63 V
0 2496 R
0 -63 V
stroke
10920 4240 M
[ [(Times-Roman) 200.0 0.0 true true 0 ( 10)]
] -66.7 MCshow
/Times-Roman findfont 200 scalefont setfont
1.000 UL
LTb
LCb setrgbcolor
11705 4440 M
0 63 V
0 2496 R
0 -63 V
stroke
11705 4240 M
[ [(Times-Roman) 200.0 0.0 true true 0 ( 12)]
] -66.7 MCshow
/Times-Roman findfont 200 scalefont setfont
1.000 UL
LTb
LCb setrgbcolor
12490 4440 M
0 63 V
0 2496 R
0 -63 V
stroke
12490 4240 M
[ [(Times-Roman) 200.0 0.0 true true 0 ( 14)]
] -66.7 MCshow
/Times-Roman findfont 200 scalefont setfont
1.000 UL
LTb
LCb setrgbcolor
1.000 UL
LTB
LCb setrgbcolor
7700 6999 N
0 -2559 V
5379 0 V
0 2559 V
-5379 0 V
Z stroke
1.000 UP
1.000 UL
LTb
LCb setrgbcolor
LCb setrgbcolor
7000 5719 M
currentpoint gsave translate -270 rotate 0 0 moveto
[ [(Times-Roman) 200.0 0.0 true true 0 (dudt)]
[(Times-Roman) 160.0 -60.0 true true 0 (non-ideal)]
[(Times-Roman) 200.0 0.0 true true 0 ( \(erg g)]
[(Times-Roman) 160.0 100.0 true true 0 (-1)]
[(Times-Roman) 200.0 0.0 true true 0 ( s)]
[(Times-Roman) 160.0 100.0 true true 0 (-1)]
[(Times-Roman) 200.0 0.0 true true 0 (\))]
] -66.7 MCshow
grestore
/Times-Roman findfont 200 scalefont setfont
LTb
LCb setrgbcolor
10389 3940 M
[ [(Symbol) 200.0 0.0 true true 0 (r)]
[(Times-Roman) 200.0 0.0 true true 0 ( \(10)]
[(Times-Roman) 160.0 100.0 true true 0 (-19)]
[(Times-Roman) 200.0 0.0 true true 0 ( g cm)]
[(Times-Roman) 160.0 100.0 true true 0 (-3)]
[(Times-Roman) 200.0 0.0 true true 0 (\))]
] -86.7 MCshow
/Times-Roman findfont 200 scalefont setfont
LTb
% Begin plot #1
3.000 UL
LTb
LT8
LC8 setrgbcolor
7734 5375 M
4 3 V
5 3 V
4 3 V
5 3 V
4 3 V
5 3 V
5 4 V
4 3 V
5 3 V
5 3 V
4 3 V
5 3 V
5 3 V
5 3 V
5 4 V
4 3 V
5 3 V
5 3 V
5 3 V
5 3 V
5 3 V
5 4 V
5 3 V
6 3 V
5 3 V
5 3 V
5 3 V
5 3 V
6 3 V
5 4 V
5 3 V
6 3 V
5 3 V
6 3 V
5 3 V
6 3 V
5 3 V
6 3 V
5 4 V
6 3 V
6 3 V
5 3 V
6 3 V
6 3 V
6 3 V
5 3 V
6 4 V
6 3 V
6 3 V
6 3 V
6 3 V
6 3 V
6 3 V
6 3 V
7 3 V
6 4 V
6 3 V
6 3 V
7 3 V
6 3 V
6 3 V
7 3 V
6 3 V
7 3 V
6 4 V
7 3 V
7 3 V
6 3 V
7 3 V
7 3 V
7 3 V
6 3 V
7 3 V
7 3 V
7 4 V
7 3 V
7 3 V
7 3 V
7 3 V
8 3 V
7 3 V
7 3 V
7 3 V
8 4 V
7 3 V
8 3 V
7 3 V
8 3 V
7 3 V
8 3 V
7 3 V
8 3 V
8 3 V
8 3 V
7 4 V
8 3 V
8 3 V
8 3 V
8 3 V
8 3 V
9 3 V
8 3 V
8 3 V
8 3 V
9 4 V
8 3 V
8 3 V
9 3 V
8 3 V
9 3 V
9 3 V
8 3 V
9 3 V
9 3 V
9 3 V
9 4 V
9 3 V
9 3 V
9 3 V
9 3 V
9 3 V
9 3 V
9 3 V
10 3 V
9 3 V
10 3 V
9 3 V
10 4 V
9 3 V
10 3 V
10 3 V
10 3 V
9 3 V
10 3 V
10 3 V
10 3 V
10 3 V
11 3 V
10 3 V
10 4 V
10 3 V
11 3 V
10 3 V
11 3 V
10 3 V
11 3 V
11 3 V
11 3 V
10 3 V
11 3 V
11 3 V
11 3 V
11 4 V
12 3 V
11 3 V
11 3 V
12 3 V
11 3 V
12 3 V
11 3 V
12 3 V
12 3 V
11 3 V
12 3 V
12 3 V
12 3 V
12 4 V
12 3 V
13 3 V
12 3 V
12 3 V
13 3 V
12 3 V
13 3 V
13 3 V
12 3 V
13 3 V
13 3 V
13 3 V
13 3 V
13 4 V
14 3 V
13 3 V
13 3 V
14 3 V
13 3 V
14 3 V
14 3 V
13 3 V
14 3 V
14 3 V
14 3 V
15 3 V
14 3 V
14 3 V
14 3 V
15 4 V
14 3 V
15 3 V
15 3 V
15 3 V
15 3 V
15 3 V
15 3 V
15 3 V
15 3 V
16 3 V
15 3 V
16 3 V
15 3 V
16 3 V
16 3 V
16 3 V
16 4 V
16 3 V
16 3 V
16 3 V
17 3 V
16 3 V
17 3 V
17 3 V
17 3 V
16 3 V
18 3 V
17 3 V
17 3 V
17 3 V
18 3 V
17 3 V
18 3 V
18 3 V
17 4 V
18 3 V
19 3 V
18 3 V
18 3 V
18 3 V
19 3 V
19 3 V
18 3 V
19 3 V
19 3 V
19 3 V
19 3 V
20 3 V
19 3 V
20 3 V
19 3 V
20 3 V
stroke 10297 6143 M
20 3 V
20 3 V
20 4 V
20 3 V
21 3 V
20 3 V
21 3 V
21 3 V
21 3 V
21 3 V
21 3 V
21 3 V
21 3 V
22 3 V
22 3 V
21 3 V
22 3 V
22 3 V
23 3 V
22 3 V
22 3 V
23 3 V
23 3 V
22 3 V
23 4 V
24 3 V
23 3 V
23 3 V
24 3 V
23 3 V
24 3 V
24 3 V
24 3 V
25 3 V
24 3 V
25 3 V
24 3 V
25 3 V
25 3 V
25 3 V
26 3 V
25 3 V
26 3 V
25 3 V
26 3 V
26 3 V
27 3 V
26 3 V
27 4 V
26 3 V
27 3 V
27 3 V
27 3 V
28 3 V
27 3 V
28 3 V
28 3 V
28 3 V
28 3 V
29 3 V
28 3 V
29 3 V
29 3 V
29 3 V
29 3 V
29 3 V
30 3 V
30 3 V
30 3 V
30 3 V
30 3 V
31 3 V
30 3 V
31 3 V
31 3 V
31 4 V
32 3 V
31 3 V
32 3 V
32 3 V
32 3 V
33 3 V
32 3 V
33 3 V
33 3 V
33 3 V
34 3 V
33 3 V
34 3 V
34 3 V
34 3 V
34 3 V
35 3 V
35 3 V
35 3 V
35 3 V
35 3 V
36 3 V
36 3 V
% End plot #1
% Begin plot #2
stroke
1.000 UL
LTb
0.00 0.62 0.45 C
% End plot #2
2.000 UL
LTb
LCb setrgbcolor
1.000 UL
LTB
LCb setrgbcolor
7700 6999 N
0 -2559 V
5379 0 V
0 2559 V
-5379 0 V
Z stroke
1.000 UP
1.000 UL
LTb
LCb setrgbcolor
1.000 UL
LTb
LCb setrgbcolor
14420 4440 M
63 0 V
5316 0 R
-63 0 V
stroke
14300 4440 M
[ [(Times-Roman) 200.0 0.0 true true 0 (10)]
[(Times-Roman) 160.0 100.0 true true 0 (-14)]
] -86.7 MRshow
/Times-Roman findfont 200 scalefont setfont
1.000 UL
LTb
LCb setrgbcolor
14420 4697 M
31 0 V
5348 0 R
-31 0 V
-5348 150 R
31 0 V
5348 0 R
-31 0 V
-5348 107 R
31 0 V
5348 0 R
-31 0 V
-5348 82 R
31 0 V
5348 0 R
-31 0 V
-5348 68 R
31 0 V
5348 0 R
-31 0 V
-5348 57 R
31 0 V
5348 0 R
-31 0 V
-5348 49 R
31 0 V
5348 0 R
-31 0 V
-5348 44 R
31 0 V
5348 0 R
-31 0 V
-5348 39 R
63 0 V
5316 0 R
-63 0 V
stroke
14300 5293 M
[ [(Times-Roman) 200.0 0.0 true true 0 (10)]
[(Times-Roman) 160.0 100.0 true true 0 (-13)]
] -86.7 MRshow
/Times-Roman findfont 200 scalefont setfont
1.000 UL
LTb
LCb setrgbcolor
14420 5550 M
31 0 V
5348 0 R
-31 0 V
-5348 150 R
31 0 V
5348 0 R
-31 0 V
-5348 107 R
31 0 V
5348 0 R
-31 0 V
-5348 82 R
31 0 V
5348 0 R
-31 0 V
-5348 68 R
31 0 V
5348 0 R
-31 0 V
-5348 57 R
31 0 V
5348 0 R
-31 0 V
-5348 49 R
31 0 V
5348 0 R
-31 0 V
-5348 44 R
31 0 V
5348 0 R
-31 0 V
-5348 39 R
63 0 V
5316 0 R
-63 0 V
stroke
14300 6146 M
[ [(Times-Roman) 200.0 0.0 true true 0 (10)]
[(Times-Roman) 160.0 100.0 true true 0 (-12)]
] -86.7 MRshow
/Times-Roman findfont 200 scalefont setfont
1.000 UL
LTb
LCb setrgbcolor
14420 6403 M
31 0 V
5348 0 R
-31 0 V
-5348 150 R
31 0 V
5348 0 R
-31 0 V
-5348 107 R
31 0 V
5348 0 R
-31 0 V
-5348 82 R
31 0 V
5348 0 R
-31 0 V
-5348 68 R
31 0 V
5348 0 R
-31 0 V
-5348 57 R
31 0 V
5348 0 R
-31 0 V
-5348 49 R
31 0 V
5348 0 R
-31 0 V
-5348 44 R
31 0 V
5348 0 R
-31 0 V
-5348 39 R
63 0 V
5316 0 R
-63 0 V
stroke
14300 6999 M
[ [(Times-Roman) 200.0 0.0 true true 0 (10)]
[(Times-Roman) 160.0 100.0 true true 0 (-11)]
] -86.7 MRshow
/Times-Roman findfont 200 scalefont setfont
1.000 UL
LTb
LCb setrgbcolor
14499 4440 M
0 63 V
0 2496 R
0 -63 V
stroke
14499 4240 M
[ [(Times-Roman) 200.0 0.0 true true 0 ( 2)]
] -66.7 MCshow
/Times-Roman findfont 200 scalefont setfont
1.000 UL
LTb
LCb setrgbcolor
15284 4440 M
0 63 V
0 2496 R
0 -63 V
stroke
15284 4240 M
[ [(Times-Roman) 200.0 0.0 true true 0 ( 4)]
] -66.7 MCshow
/Times-Roman findfont 200 scalefont setfont
1.000 UL
LTb
LCb setrgbcolor
16069 4440 M
0 63 V
0 2496 R
0 -63 V
stroke
16069 4240 M
[ [(Times-Roman) 200.0 0.0 true true 0 ( 6)]
] -66.7 MCshow
/Times-Roman findfont 200 scalefont setfont
1.000 UL
LTb
LCb setrgbcolor
16854 4440 M
0 63 V
0 2496 R
0 -63 V
stroke
16854 4240 M
[ [(Times-Roman) 200.0 0.0 true true 0 ( 8)]
] -66.7 MCshow
/Times-Roman findfont 200 scalefont setfont
1.000 UL
LTb
LCb setrgbcolor
17640 4440 M
0 63 V
0 2496 R
0 -63 V
stroke
17640 4240 M
[ [(Times-Roman) 200.0 0.0 true true 0 ( 10)]
] -66.7 MCshow
/Times-Roman findfont 200 scalefont setfont
1.000 UL
LTb
LCb setrgbcolor
18425 4440 M
0 63 V
0 2496 R
0 -63 V
stroke
18425 4240 M
[ [(Times-Roman) 200.0 0.0 true true 0 ( 12)]
] -66.7 MCshow
/Times-Roman findfont 200 scalefont setfont
1.000 UL
LTb
LCb setrgbcolor
19210 4440 M
0 63 V
0 2496 R
0 -63 V
stroke
19210 4240 M
[ [(Times-Roman) 200.0 0.0 true true 0 ( 14)]
] -66.7 MCshow
/Times-Roman findfont 200 scalefont setfont
1.000 UL
LTb
LCb setrgbcolor
1.000 UL
LTB
LCb setrgbcolor
14420 6999 N
0 -2559 V
5379 0 V
0 2559 V
-5379 0 V
Z stroke
1.000 UP
1.000 UL
LTb
LCb setrgbcolor
LCb setrgbcolor
13720 5719 M
currentpoint gsave translate -270 rotate 0 0 moveto
[ [(Times-Roman) 200.0 0.0 true true 0 (dBdt)]
[(Times-Roman) 160.0 -60.0 true true 0 (non-ideal,z)]
[(Times-Roman) 200.0 0.0 true true 0 ( \(G s)]
[(Times-Roman) 160.0 100.0 true true 0 (-1)]
[(Times-Roman) 200.0 0.0 true true 0 (\))]
] -66.7 MCshow
grestore
/Times-Roman findfont 200 scalefont setfont
LTb
LCb setrgbcolor
17109 3940 M
[ [(Symbol) 200.0 0.0 true true 0 (r)]
[(Times-Roman) 200.0 0.0 true true 0 ( \(10)]
[(Times-Roman) 160.0 100.0 true true 0 (-19)]
[(Times-Roman) 200.0 0.0 true true 0 ( g cm)]
[(Times-Roman) 160.0 100.0 true true 0 (-3)]
[(Times-Roman) 200.0 0.0 true true 0 (\))]
] -86.7 MCshow
/Times-Roman findfont 200 scalefont setfont
LTb
% Begin plot #1
3.000 UL
LTb
LT8
LC8 setrgbcolor
14454 5223 M
4 1 V
5 3 V
4 3 V
5 3 V
4 3 V
5 3 V
5 3 V
4 3 V
5 2 V
5 3 V
4 3 V
5 3 V
5 3 V
5 3 V
5 3 V
4 3 V
5 3 V
5 3 V
5 2 V
5 3 V
5 3 V
5 3 V
5 3 V
6 3 V
5 3 V
5 3 V
5 3 V
5 2 V
6 3 V
5 3 V
5 3 V
6 3 V
5 3 V
6 3 V
5 3 V
6 3 V
5 2 V
6 3 V
5 3 V
6 3 V
6 3 V
5 3 V
6 3 V
6 3 V
6 3 V
5 2 V
6 3 V
6 3 V
6 3 V
6 3 V
6 3 V
6 3 V
6 3 V
6 2 V
7 3 V
6 3 V
6 3 V
6 3 V
7 3 V
6 3 V
6 3 V
7 2 V
6 3 V
7 3 V
6 3 V
7 3 V
7 3 V
6 3 V
7 2 V
7 3 V
7 3 V
6 3 V
7 3 V
7 3 V
7 3 V
7 3 V
7 2 V
7 3 V
7 3 V
8 3 V
7 3 V
7 3 V
7 3 V
8 2 V
7 3 V
8 3 V
7 3 V
8 3 V
7 3 V
8 3 V
7 2 V
8 3 V
8 3 V
8 3 V
7 3 V
8 3 V
8 3 V
8 2 V
8 3 V
8 3 V
9 3 V
8 3 V
8 3 V
8 3 V
9 2 V
8 3 V
8 3 V
9 3 V
8 3 V
9 3 V
9 2 V
8 3 V
9 3 V
9 3 V
9 3 V
9 3 V
9 3 V
9 2 V
9 3 V
9 3 V
9 3 V
9 3 V
9 3 V
10 2 V
9 3 V
10 3 V
9 3 V
10 3 V
9 3 V
10 2 V
10 3 V
10 3 V
9 3 V
10 3 V
10 3 V
10 2 V
10 3 V
11 3 V
10 3 V
10 3 V
10 3 V
11 3 V
10 2 V
11 3 V
10 3 V
11 3 V
11 3 V
11 3 V
10 2 V
11 3 V
11 3 V
11 3 V
11 3 V
12 2 V
11 3 V
11 3 V
12 3 V
11 3 V
12 3 V
11 2 V
12 3 V
12 3 V
11 3 V
12 3 V
12 3 V
12 2 V
12 3 V
12 3 V
13 3 V
12 3 V
12 3 V
13 2 V
12 3 V
13 3 V
13 3 V
12 3 V
13 2 V
13 3 V
13 3 V
13 3 V
13 3 V
14 3 V
13 2 V
13 3 V
14 3 V
13 3 V
14 3 V
14 3 V
13 2 V
14 3 V
14 3 V
14 3 V
15 3 V
14 2 V
14 3 V
14 3 V
15 3 V
14 3 V
15 3 V
15 2 V
15 3 V
15 3 V
15 3 V
15 3 V
15 2 V
15 3 V
16 3 V
15 3 V
16 3 V
15 3 V
16 2 V
16 3 V
16 3 V
16 3 V
16 3 V
16 2 V
16 3 V
17 3 V
16 3 V
17 3 V
17 2 V
17 3 V
16 3 V
18 3 V
17 3 V
17 3 V
17 2 V
18 3 V
17 3 V
18 3 V
18 3 V
17 2 V
18 3 V
19 3 V
18 3 V
18 3 V
18 2 V
19 3 V
19 3 V
18 3 V
19 3 V
19 2 V
19 3 V
19 3 V
20 3 V
19 3 V
20 2 V
19 3 V
20 3 V
stroke 17017 5930 M
20 3 V
20 3 V
20 3 V
20 2 V
21 3 V
20 3 V
21 3 V
21 3 V
21 2 V
21 3 V
21 3 V
21 3 V
21 3 V
22 2 V
22 3 V
21 3 V
22 3 V
22 3 V
23 2 V
22 3 V
22 3 V
23 3 V
23 3 V
22 2 V
23 3 V
24 3 V
23 3 V
23 3 V
24 2 V
23 3 V
24 3 V
24 3 V
24 3 V
25 2 V
24 3 V
25 3 V
24 3 V
25 3 V
25 2 V
25 3 V
26 3 V
25 3 V
26 3 V
25 3 V
26 2 V
26 3 V
27 3 V
26 3 V
27 3 V
26 2 V
27 3 V
27 3 V
27 3 V
28 3 V
27 2 V
28 3 V
28 3 V
28 3 V
28 3 V
29 2 V
28 3 V
29 3 V
29 3 V
29 3 V
29 2 V
29 3 V
30 3 V
30 3 V
30 3 V
30 2 V
30 3 V
31 3 V
30 3 V
31 3 V
31 2 V
31 3 V
32 3 V
31 3 V
32 3 V
32 2 V
32 3 V
33 3 V
32 3 V
33 3 V
33 2 V
33 3 V
34 3 V
33 3 V
34 3 V
34 2 V
34 3 V
34 3 V
35 3 V
35 3 V
35 2 V
35 3 V
35 3 V
36 3 V
36 3 V
% End plot #1
% Begin plot #2
stroke
1.000 UL
LTb
0.00 0.62 0.45 C
% End plot #2
2.000 UL
LTb
LCb setrgbcolor
1.000 UL
LTB
LCb setrgbcolor
14420 6999 N
0 -2559 V
5379 0 V
0 2559 V
-5379 0 V
Z stroke
1.000 UP
1.000 UL
LTb
LCb setrgbcolor
1.000 UL
LTb
LCb setrgbcolor
980 840 M
63 0 V
5316 0 R
-63 0 V
stroke
860 840 M
[ [(Times-Roman) 200.0 0.0 true true 0 (10)]
[(Times-Roman) 160.0 100.0 true true 0 (  8)]
] -86.7 MRshow
/Times-Roman findfont 200 scalefont setfont
1.000 UL
LTb
LCb setrgbcolor
980 1037 M
31 0 V
5348 0 R
-31 0 V
980 1089 M
31 0 V
5348 0 R
-31 0 V
980 1120 M
31 0 V
5348 0 R
-31 0 V
980 1142 M
31 0 V
5348 0 R
-31 0 V
980 1160 M
31 0 V
5348 0 R
-31 0 V
980 1174 M
31 0 V
5348 0 R
-31 0 V
980 1186 M
31 0 V
5348 0 R
-31 0 V
980 1196 M
31 0 V
5348 0 R
-31 0 V
980 1206 M
63 0 V
5316 0 R
-63 0 V
stroke
860 1206 M
[ [(Times-Roman) 200.0 0.0 true true 0 (10)]
[(Times-Roman) 160.0 100.0 true true 0 ( 10)]
] -86.7 MRshow
/Times-Roman findfont 200 scalefont setfont
1.000 UL
LTb
LCb setrgbcolor
980 1403 M
31 0 V
5348 0 R
-31 0 V
980 1455 M
31 0 V
5348 0 R
-31 0 V
980 1486 M
31 0 V
5348 0 R
-31 0 V
980 1508 M
31 0 V
5348 0 R
-31 0 V
980 1525 M
31 0 V
5348 0 R
-31 0 V
980 1540 M
31 0 V
5348 0 R
-31 0 V
980 1552 M
31 0 V
5348 0 R
-31 0 V
980 1562 M
31 0 V
5348 0 R
-31 0 V
-5348 9 R
63 0 V
5316 0 R
-63 0 V
stroke
860 1571 M
[ [(Times-Roman) 200.0 0.0 true true 0 (10)]
[(Times-Roman) 160.0 100.0 true true 0 ( 12)]
] -86.7 MRshow
/Times-Roman findfont 200 scalefont setfont
1.000 UL
LTb
LCb setrgbcolor
980 1769 M
31 0 V
5348 0 R
-31 0 V
980 1820 M
31 0 V
5348 0 R
-31 0 V
980 1851 M
31 0 V
5348 0 R
-31 0 V
980 1874 M
31 0 V
5348 0 R
-31 0 V
980 1891 M
31 0 V
5348 0 R
-31 0 V
980 1905 M
31 0 V
5348 0 R
-31 0 V
980 1917 M
31 0 V
5348 0 R
-31 0 V
980 1928 M
31 0 V
5348 0 R
-31 0 V
-5348 9 R
63 0 V
5316 0 R
-63 0 V
stroke
860 1937 M
[ [(Times-Roman) 200.0 0.0 true true 0 (10)]
[(Times-Roman) 160.0 100.0 true true 0 ( 14)]
] -86.7 MRshow
/Times-Roman findfont 200 scalefont setfont
1.000 UL
LTb
LCb setrgbcolor
980 2134 M
31 0 V
5348 0 R
-31 0 V
980 2186 M
31 0 V
5348 0 R
-31 0 V
980 2217 M
31 0 V
5348 0 R
-31 0 V
980 2239 M
31 0 V
5348 0 R
-31 0 V
980 2257 M
31 0 V
5348 0 R
-31 0 V
980 2271 M
31 0 V
5348 0 R
-31 0 V
980 2283 M
31 0 V
5348 0 R
-31 0 V
980 2294 M
31 0 V
5348 0 R
-31 0 V
-5348 9 R
63 0 V
5316 0 R
-63 0 V
stroke
860 2303 M
[ [(Times-Roman) 200.0 0.0 true true 0 (10)]
[(Times-Roman) 160.0 100.0 true true 0 ( 16)]
] -86.7 MRshow
/Times-Roman findfont 200 scalefont setfont
1.000 UL
LTb
LCb setrgbcolor
980 2500 M
31 0 V
5348 0 R
-31 0 V
980 2552 M
31 0 V
5348 0 R
-31 0 V
980 2583 M
31 0 V
5348 0 R
-31 0 V
980 2605 M
31 0 V
5348 0 R
-31 0 V
980 2623 M
31 0 V
5348 0 R
-31 0 V
980 2637 M
31 0 V
5348 0 R
-31 0 V
980 2649 M
31 0 V
5348 0 R
-31 0 V
980 2659 M
31 0 V
5348 0 R
-31 0 V
980 2669 M
63 0 V
5316 0 R
-63 0 V
stroke
860 2669 M
[ [(Times-Roman) 200.0 0.0 true true 0 (10)]
[(Times-Roman) 160.0 100.0 true true 0 ( 18)]
] -86.7 MRshow
/Times-Roman findfont 200 scalefont setfont
1.000 UL
LTb
LCb setrgbcolor
980 2866 M
31 0 V
5348 0 R
-31 0 V
980 2918 M
31 0 V
5348 0 R
-31 0 V
980 2949 M
31 0 V
5348 0 R
-31 0 V
980 2971 M
31 0 V
5348 0 R
-31 0 V
980 2988 M
31 0 V
5348 0 R
-31 0 V
980 3002 M
31 0 V
5348 0 R
-31 0 V
980 3015 M
31 0 V
5348 0 R
-31 0 V
980 3025 M
31 0 V
5348 0 R
-31 0 V
-5348 9 R
63 0 V
5316 0 R
-63 0 V
stroke
860 3034 M
[ [(Times-Roman) 200.0 0.0 true true 0 (10)]
[(Times-Roman) 160.0 100.0 true true 0 ( 20)]
] -86.7 MRshow
/Times-Roman findfont 200 scalefont setfont
1.000 UL
LTb
LCb setrgbcolor
980 3232 M
31 0 V
5348 0 R
-31 0 V
980 3283 M
31 0 V
5348 0 R
-31 0 V
980 3314 M
31 0 V
5348 0 R
-31 0 V
980 3337 M
31 0 V
5348 0 R
-31 0 V
980 3354 M
31 0 V
5348 0 R
-31 0 V
980 3368 M
31 0 V
5348 0 R
-31 0 V
980 3380 M
31 0 V
5348 0 R
-31 0 V
980 3391 M
31 0 V
5348 0 R
-31 0 V
-5348 9 R
63 0 V
5316 0 R
-63 0 V
stroke
860 3400 M
[ [(Times-Roman) 200.0 0.0 true true 0 (10)]
[(Times-Roman) 160.0 100.0 true true 0 ( 22)]
] -86.7 MRshow
/Times-Roman findfont 200 scalefont setfont
1.000 UL
LTb
LCb setrgbcolor
1059 840 M
0 63 V
0 2497 R
0 -63 V
stroke
1059 640 M
[ [(Times-Roman) 200.0 0.0 true true 0 ( 2)]
] -66.7 MCshow
/Times-Roman findfont 200 scalefont setfont
1.000 UL
LTb
LCb setrgbcolor
1844 840 M
0 63 V
0 2497 R
0 -63 V
stroke
1844 640 M
[ [(Times-Roman) 200.0 0.0 true true 0 ( 4)]
] -66.7 MCshow
/Times-Roman findfont 200 scalefont setfont
1.000 UL
LTb
LCb setrgbcolor
2629 840 M
0 63 V
0 2497 R
0 -63 V
stroke
2629 640 M
[ [(Times-Roman) 200.0 0.0 true true 0 ( 6)]
] -66.7 MCshow
/Times-Roman findfont 200 scalefont setfont
1.000 UL
LTb
LCb setrgbcolor
3414 840 M
0 63 V
0 2497 R
0 -63 V
stroke
3414 640 M
[ [(Times-Roman) 200.0 0.0 true true 0 ( 8)]
] -66.7 MCshow
/Times-Roman findfont 200 scalefont setfont
1.000 UL
LTb
LCb setrgbcolor
4200 840 M
0 63 V
0 2497 R
0 -63 V
stroke
4200 640 M
[ [(Times-Roman) 200.0 0.0 true true 0 ( 10)]
] -66.7 MCshow
/Times-Roman findfont 200 scalefont setfont
1.000 UL
LTb
LCb setrgbcolor
4985 840 M
0 63 V
0 2497 R
0 -63 V
stroke
4985 640 M
[ [(Times-Roman) 200.0 0.0 true true 0 ( 12)]
] -66.7 MCshow
/Times-Roman findfont 200 scalefont setfont
1.000 UL
LTb
LCb setrgbcolor
5770 840 M
0 63 V
0 2497 R
0 -63 V
stroke
5770 640 M
[ [(Times-Roman) 200.0 0.0 true true 0 ( 14)]
] -66.7 MCshow
/Times-Roman findfont 200 scalefont setfont
1.000 UL
LTb
LCb setrgbcolor
1.000 UL
LTB
LCb setrgbcolor
980 3400 N
980 840 L
5379 0 V
0 2560 V
-5379 0 V
Z stroke
1.000 UP
1.000 UL
LTb
LCb setrgbcolor
LCb setrgbcolor
280 2120 M
currentpoint gsave translate -270 rotate 0 0 moveto
[ [(Symbol) 200.0 0.0 true true 0 (h)]
[(Times-Roman) 200.0 0.0 true true 0 ( \(cm)]
[(Times-Roman) 160.0 100.0 true true 0 (2)]
[(Times-Roman) 200.0 0.0 true true 0 ( s)]
[(Times-Roman) 160.0 100.0 true true 0 (-1)]
[(Times-Roman) 200.0 0.0 true true 0 (\))]
] -86.7 MCshow
grestore
/Times-Roman findfont 200 scalefont setfont
LTb
LCb setrgbcolor
3669 340 M
[ [(Symbol) 200.0 0.0 true true 0 (r)]
[(Times-Roman) 200.0 0.0 true true 0 ( \(10)]
[(Times-Roman) 160.0 100.0 true true 0 (-19)]
[(Times-Roman) 200.0 0.0 true true 0 ( g cm)]
[(Times-Roman) 160.0 100.0 true true 0 (-3)]
[(Times-Roman) 200.0 0.0 true true 0 (\))]
] -86.7 MCshow
/Times-Roman findfont 200 scalefont setfont
LTb
% Begin plot #1
3.000 UL
LTb
LC0 setrgbcolor
LCb setrgbcolor
1820 3237 M
[ [(Symbol) 200.0 0.0 true true 0 (h)]
[(Times-Roman) 160.0 -60.0 true true 0 (OR)]
] -46.7 MRshow
/Times-Roman findfont 200 scalefont setfont
3.000 UL
LTb
LC0 setrgbcolor
1940 3237 M
543 0 V
1014 1205 M
4 0 V
5 0 V
4 1 V
5 0 V
4 0 V
5 1 V
5 0 V
4 0 V
5 1 V
5 0 V
4 0 V
5 1 V
5 0 V
5 0 V
5 1 V
4 0 V
5 0 V
5 1 V
5 0 V
5 0 V
5 1 V
5 0 V
5 0 V
6 1 V
5 0 V
5 0 V
5 1 V
5 0 V
6 0 V
5 1 V
5 0 V
6 0 V
5 1 V
6 0 V
5 0 V
6 0 V
5 1 V
6 0 V
5 0 V
6 1 V
6 0 V
5 0 V
6 1 V
6 0 V
6 0 V
5 1 V
6 0 V
6 0 V
6 1 V
6 0 V
6 0 V
6 1 V
6 0 V
6 0 V
7 1 V
6 0 V
6 0 V
6 1 V
7 0 V
6 0 V
6 1 V
7 0 V
6 0 V
7 0 V
6 1 V
7 0 V
7 0 V
6 1 V
7 0 V
7 0 V
7 1 V
6 0 V
7 0 V
7 1 V
7 0 V
7 0 V
7 1 V
7 0 V
7 0 V
8 1 V
7 0 V
7 0 V
7 1 V
8 0 V
7 0 V
8 0 V
7 1 V
8 0 V
7 0 V
8 1 V
7 0 V
8 0 V
8 1 V
8 0 V
7 0 V
8 1 V
8 0 V
8 0 V
8 1 V
8 0 V
9 0 V
8 1 V
8 0 V
8 0 V
9 0 V
8 1 V
8 0 V
9 0 V
8 1 V
9 0 V
9 0 V
8 1 V
9 0 V
9 0 V
9 1 V
9 0 V
9 0 V
9 1 V
9 0 V
9 0 V
9 0 V
9 1 V
9 0 V
10 0 V
9 1 V
10 0 V
9 0 V
10 1 V
9 0 V
10 0 V
10 1 V
10 0 V
9 0 V
10 1 V
10 0 V
10 0 V
10 0 V
11 1 V
10 0 V
10 0 V
10 1 V
11 0 V
10 0 V
11 1 V
10 0 V
11 0 V
11 1 V
11 0 V
10 0 V
11 0 V
11 1 V
11 0 V
11 0 V
12 1 V
11 0 V
11 0 V
12 1 V
11 0 V
12 0 V
11 1 V
12 0 V
12 0 V
11 0 V
12 1 V
12 0 V
12 0 V
12 1 V
12 0 V
13 0 V
12 1 V
12 0 V
13 0 V
12 1 V
13 0 V
13 0 V
12 0 V
13 1 V
13 0 V
13 0 V
13 1 V
13 0 V
14 0 V
13 1 V
13 0 V
14 0 V
13 0 V
14 1 V
14 0 V
13 0 V
14 1 V
14 0 V
14 0 V
15 1 V
14 0 V
14 0 V
14 1 V
15 0 V
14 0 V
15 0 V
15 1 V
15 0 V
15 0 V
15 1 V
15 0 V
15 0 V
15 1 V
16 0 V
15 0 V
16 0 V
15 1 V
16 0 V
16 0 V
16 1 V
16 0 V
16 0 V
16 1 V
16 0 V
17 0 V
16 0 V
17 1 V
17 0 V
17 0 V
16 1 V
18 0 V
17 0 V
17 1 V
17 0 V
18 0 V
17 0 V
18 1 V
18 0 V
17 0 V
18 1 V
19 0 V
18 0 V
18 1 V
18 0 V
19 0 V
19 0 V
18 1 V
19 0 V
19 0 V
19 1 V
19 0 V
20 0 V
19 1 V
20 0 V
stroke 3538 1282 M
19 0 V
20 0 V
20 1 V
20 0 V
20 0 V
20 1 V
21 0 V
20 0 V
21 1 V
21 0 V
21 0 V
21 0 V
21 1 V
21 0 V
21 0 V
22 1 V
22 0 V
21 0 V
22 0 V
22 1 V
23 0 V
22 0 V
22 1 V
23 0 V
23 0 V
22 1 V
23 0 V
24 0 V
23 0 V
23 1 V
24 0 V
23 0 V
24 1 V
24 0 V
24 0 V
25 1 V
24 0 V
25 0 V
24 0 V
25 1 V
25 0 V
25 0 V
26 1 V
25 0 V
26 0 V
25 0 V
26 1 V
26 0 V
27 0 V
26 1 V
27 0 V
26 0 V
27 1 V
27 0 V
27 0 V
28 0 V
27 1 V
28 0 V
28 0 V
28 1 V
28 0 V
29 0 V
28 0 V
29 1 V
29 0 V
29 0 V
29 1 V
29 0 V
30 0 V
30 1 V
30 0 V
30 0 V
30 0 V
31 1 V
30 0 V
31 0 V
31 1 V
31 0 V
32 0 V
31 0 V
32 1 V
32 0 V
32 0 V
33 1 V
32 0 V
33 0 V
33 0 V
33 1 V
34 0 V
33 0 V
34 1 V
34 0 V
34 0 V
34 1 V
35 0 V
35 0 V
35 0 V
35 1 V
35 0 V
36 0 V
36 1 V
% End plot #1
% Begin plot #2
stroke
LTb
LC2 setrgbcolor
LCb setrgbcolor
1820 3037 M
[ [(Symbol) 200.0 0.0 true true 0 (h)]
[(Times-Roman) 160.0 -60.0 true true 0 (HE)]
[(Times-Roman) 200.0 0.0 true true 0 ( > 0)]
] -46.7 MRshow
/Times-Roman findfont 200 scalefont setfont
3.000 UL
LTb
LC2 setrgbcolor
1940 3037 M
543 0 V
1014 2039 M
4 -3 V
5 -3 V
4 -4 V
5 -4 V
4 -4 V
5 -4 V
5 -4 V
4 -5 V
5 -6 V
5 -6 V
4 -6 V
5 -7 V
5 -8 V
5 -9 V
5 -10 V
4 -11 V
5 -14 V
5 -17 V
5 -21 V
5 -30 V
5 -51 V
5 -176 V
% End plot #2
% Begin plot #3
stroke
LTb
LC3 setrgbcolor
LCb setrgbcolor
1820 2837 M
[ [(Symbol) 200.0 0.0 true true 0 (h)]
[(Times-Roman) 160.0 -60.0 true true 0 (HE)]
[(Times-Roman) 200.0 0.0 true true 0 ( < 0)]
] -46.7 MRshow
/Times-Roman findfont 200 scalefont setfont
3.000 UL
LTb
LC3 setrgbcolor
1940 2837 M
543 0 V
1123 1794 M
6 61 V
5 34 V
5 24 V
5 19 V
5 15 V
6 13 V
5 11 V
5 10 V
6 9 V
5 8 V
6 8 V
5 7 V
6 6 V
5 6 V
6 6 V
5 5 V
6 5 V
6 5 V
5 5 V
6 4 V
6 4 V
6 4 V
5 4 V
6 4 V
6 3 V
6 4 V
6 3 V
6 3 V
6 4 V
6 3 V
6 3 V
7 3 V
6 2 V
6 3 V
6 3 V
7 2 V
6 3 V
6 3 V
7 2 V
6 2 V
7 3 V
6 2 V
7 2 V
7 3 V
6 2 V
7 2 V
7 2 V
7 2 V
6 2 V
7 2 V
7 2 V
7 2 V
7 2 V
7 2 V
7 2 V
7 2 V
8 2 V
7 2 V
7 2 V
7 1 V
8 2 V
7 2 V
8 2 V
7 1 V
8 2 V
7 2 V
8 1 V
7 2 V
8 1 V
8 2 V
8 2 V
7 1 V
8 2 V
8 1 V
8 2 V
8 1 V
8 2 V
9 1 V
8 2 V
8 1 V
8 1 V
9 2 V
8 1 V
8 2 V
9 1 V
8 1 V
9 2 V
9 1 V
8 2 V
9 1 V
9 1 V
9 2 V
9 1 V
9 1 V
9 1 V
9 2 V
9 1 V
9 1 V
9 1 V
9 2 V
10 1 V
9 1 V
10 1 V
9 2 V
10 1 V
9 1 V
10 1 V
10 1 V
10 2 V
9 1 V
10 1 V
10 1 V
10 1 V
10 1 V
11 2 V
10 1 V
10 1 V
10 1 V
11 1 V
10 1 V
11 1 V
10 1 V
11 2 V
11 1 V
11 1 V
10 1 V
11 1 V
11 1 V
11 1 V
11 1 V
12 1 V
11 1 V
11 1 V
12 1 V
11 1 V
12 1 V
11 1 V
12 1 V
12 1 V
11 1 V
12 1 V
12 1 V
12 1 V
12 1 V
12 1 V
13 1 V
12 1 V
12 1 V
13 1 V
12 1 V
13 1 V
13 1 V
12 1 V
13 1 V
13 1 V
13 1 V
13 1 V
13 1 V
14 1 V
13 1 V
13 1 V
14 1 V
13 1 V
14 1 V
14 1 V
13 1 V
14 1 V
14 1 V
14 0 V
15 1 V
14 1 V
14 1 V
14 1 V
15 1 V
14 1 V
15 1 V
15 1 V
15 1 V
15 0 V
15 1 V
15 1 V
15 1 V
15 1 V
16 1 V
15 1 V
16 1 V
15 1 V
16 0 V
16 1 V
16 1 V
16 1 V
16 1 V
16 1 V
16 1 V
17 0 V
16 1 V
17 1 V
17 1 V
17 1 V
16 1 V
18 1 V
17 0 V
17 1 V
17 1 V
18 1 V
17 1 V
18 1 V
18 0 V
17 1 V
18 1 V
19 1 V
18 1 V
18 1 V
18 0 V
19 1 V
19 1 V
18 1 V
19 1 V
19 0 V
19 1 V
19 1 V
20 1 V
19 1 V
20 1 V
19 0 V
20 1 V
20 1 V
20 1 V
20 1 V
20 0 V
21 1 V
20 1 V
21 1 V
21 0 V
21 1 V
21 1 V
21 1 V
21 1 V
21 0 V
22 1 V
22 1 V
21 1 V
22 1 V
22 0 V
23 1 V
22 1 V
22 1 V
stroke 4021 2355 M
23 0 V
23 1 V
22 1 V
23 1 V
24 0 V
23 1 V
23 1 V
24 1 V
23 0 V
24 1 V
24 1 V
24 1 V
25 1 V
24 0 V
25 1 V
24 1 V
25 1 V
25 0 V
25 1 V
26 1 V
25 1 V
26 0 V
25 1 V
26 1 V
26 0 V
27 1 V
26 1 V
27 1 V
26 0 V
27 1 V
27 1 V
27 1 V
28 0 V
27 1 V
28 1 V
28 1 V
28 0 V
28 1 V
29 1 V
28 1 V
29 0 V
29 1 V
29 1 V
29 0 V
29 1 V
30 1 V
30 1 V
30 0 V
30 1 V
30 1 V
31 0 V
30 1 V
31 1 V
31 1 V
31 0 V
32 1 V
31 1 V
32 0 V
32 1 V
32 1 V
33 1 V
32 0 V
33 1 V
33 1 V
33 0 V
34 1 V
33 1 V
34 1 V
34 0 V
34 1 V
34 1 V
35 0 V
35 1 V
35 1 V
35 0 V
35 1 V
36 1 V
36 0 V
% End plot #3
% Begin plot #4
stroke
LTb
LC1 setrgbcolor
LCb setrgbcolor
1820 2637 M
[ [(Symbol) 200.0 0.0 true true 0 (h)]
[(Times-Roman) 160.0 -60.0 true true 0 (AD)]
] -46.7 MRshow
/Times-Roman findfont 200 scalefont setfont
3.000 UL
LTb
LC1 setrgbcolor
1940 2637 M
543 0 V
-1469 -8 R
4 0 V
5 1 V
4 0 V
5 0 V
4 0 V
5 1 V
5 0 V
4 0 V
5 1 V
5 0 V
4 0 V
5 1 V
5 0 V
5 0 V
5 1 V
4 0 V
5 0 V
5 1 V
5 0 V
5 0 V
5 1 V
5 0 V
5 0 V
6 1 V
5 0 V
5 0 V
5 1 V
5 0 V
6 0 V
5 1 V
5 0 V
6 0 V
5 1 V
6 0 V
5 0 V
6 0 V
5 1 V
6 0 V
5 0 V
6 1 V
6 0 V
5 0 V
6 1 V
6 0 V
6 0 V
5 1 V
6 0 V
6 0 V
6 1 V
6 0 V
6 0 V
6 1 V
6 0 V
6 0 V
7 1 V
6 0 V
6 0 V
6 0 V
7 1 V
6 0 V
6 0 V
7 1 V
6 0 V
7 0 V
6 1 V
7 0 V
7 0 V
6 1 V
7 0 V
7 0 V
7 1 V
6 0 V
7 0 V
7 1 V
7 0 V
7 0 V
7 0 V
7 1 V
7 0 V
8 0 V
7 1 V
7 0 V
7 0 V
8 1 V
7 0 V
8 0 V
7 1 V
8 0 V
7 0 V
8 1 V
7 0 V
8 0 V
8 0 V
8 1 V
7 0 V
8 0 V
8 1 V
8 0 V
8 0 V
8 1 V
9 0 V
8 0 V
8 1 V
8 0 V
9 0 V
8 1 V
8 0 V
9 0 V
8 0 V
9 1 V
9 0 V
8 0 V
9 1 V
9 0 V
9 0 V
9 1 V
9 0 V
9 0 V
9 1 V
9 0 V
9 0 V
9 0 V
9 1 V
10 0 V
9 0 V
10 1 V
9 0 V
10 0 V
9 1 V
10 0 V
10 0 V
10 1 V
9 0 V
10 0 V
10 0 V
10 1 V
10 0 V
11 0 V
10 1 V
10 0 V
10 0 V
11 1 V
10 0 V
11 0 V
10 0 V
11 1 V
11 0 V
11 0 V
10 1 V
11 0 V
11 0 V
11 1 V
11 0 V
12 0 V
11 1 V
11 0 V
12 0 V
11 0 V
12 1 V
11 0 V
12 0 V
12 1 V
11 0 V
12 0 V
12 1 V
12 0 V
12 0 V
12 0 V
13 1 V
12 0 V
12 0 V
13 1 V
12 0 V
13 0 V
13 1 V
12 0 V
13 0 V
13 0 V
13 1 V
13 0 V
13 0 V
14 1 V
13 0 V
13 0 V
14 1 V
13 0 V
14 0 V
14 0 V
13 1 V
14 0 V
14 0 V
14 1 V
15 0 V
14 0 V
14 1 V
14 0 V
15 0 V
14 0 V
15 1 V
15 0 V
15 0 V
15 1 V
15 0 V
15 0 V
15 1 V
15 0 V
16 0 V
15 0 V
16 1 V
15 0 V
16 0 V
16 1 V
16 0 V
16 0 V
16 1 V
16 0 V
16 0 V
17 0 V
16 1 V
17 0 V
17 0 V
17 1 V
16 0 V
18 0 V
17 1 V
17 0 V
17 0 V
18 0 V
17 1 V
18 0 V
18 0 V
17 1 V
18 0 V
19 0 V
18 0 V
18 1 V
18 0 V
19 0 V
19 1 V
18 0 V
19 0 V
19 1 V
19 0 V
19 0 V
20 0 V
19 1 V
20 0 V
stroke 3538 2705 M
19 0 V
20 1 V
20 0 V
20 0 V
20 0 V
20 1 V
21 0 V
20 0 V
21 1 V
21 0 V
21 0 V
21 1 V
21 0 V
21 0 V
21 0 V
22 1 V
22 0 V
21 0 V
22 1 V
22 0 V
23 0 V
22 0 V
22 1 V
23 0 V
23 0 V
22 1 V
23 0 V
24 0 V
23 1 V
23 0 V
24 0 V
23 0 V
24 1 V
24 0 V
24 0 V
25 1 V
24 0 V
25 0 V
24 0 V
25 1 V
25 0 V
25 0 V
26 1 V
25 0 V
26 0 V
25 0 V
26 1 V
26 0 V
27 0 V
26 1 V
27 0 V
26 0 V
27 1 V
27 0 V
27 0 V
28 0 V
27 1 V
28 0 V
28 0 V
28 1 V
28 0 V
29 0 V
28 0 V
29 1 V
29 0 V
29 0 V
29 1 V
29 0 V
30 0 V
30 0 V
30 1 V
30 0 V
30 0 V
31 1 V
30 0 V
31 0 V
31 0 V
31 1 V
32 0 V
31 0 V
32 1 V
32 0 V
32 0 V
33 0 V
32 1 V
33 0 V
33 0 V
33 1 V
34 0 V
33 0 V
34 1 V
34 0 V
34 0 V
34 0 V
35 1 V
35 0 V
35 0 V
35 1 V
35 0 V
36 0 V
36 0 V
% End plot #4
% Begin plot #5
stroke
1.000 UL
LTb
0.94 0.89 0.26 C
% End plot #5
2.000 UL
LTb
LCb setrgbcolor
1.000 UL
LTB
LCb setrgbcolor
980 3400 N
980 840 L
5379 0 V
0 2560 V
-5379 0 V
Z stroke
1.000 UP
1.000 UL
LTb
LCb setrgbcolor
1.000 UL
LTb
LCb setrgbcolor
7820 840 M
63 0 V
5196 0 R
-63 0 V
stroke
7700 840 M
[ [(Times-Roman) 200.0 0.0 true true 0 (-0.2)]
] -66.7 MRshow
/Times-Roman findfont 200 scalefont setfont
1.000 UL
LTb
LCb setrgbcolor
7820 1352 M
63 0 V
5196 0 R
-63 0 V
stroke
7700 1352 M
[ [(Times-Roman) 200.0 0.0 true true 0 (-0.15)]
] -66.7 MRshow
/Times-Roman findfont 200 scalefont setfont
1.000 UL
LTb
LCb setrgbcolor
7820 1864 M
63 0 V
5196 0 R
-63 0 V
stroke
7700 1864 M
[ [(Times-Roman) 200.0 0.0 true true 0 (-0.1)]
] -66.7 MRshow
/Times-Roman findfont 200 scalefont setfont
1.000 UL
LTb
LCb setrgbcolor
7820 2376 M
63 0 V
5196 0 R
-63 0 V
stroke
7700 2376 M
[ [(Times-Roman) 200.0 0.0 true true 0 (-0.05)]
] -66.7 MRshow
/Times-Roman findfont 200 scalefont setfont
1.000 UL
LTb
LCb setrgbcolor
7820 2888 M
63 0 V
5196 0 R
-63 0 V
stroke
7700 2888 M
[ [(Times-Roman) 200.0 0.0 true true 0 (0)]
] -66.7 MRshow
/Times-Roman findfont 200 scalefont setfont
1.000 UL
LTb
LCb setrgbcolor
7820 3400 M
63 0 V
5196 0 R
-63 0 V
stroke
7700 3400 M
[ [(Times-Roman) 200.0 0.0 true true 0 (0.05)]
] -66.7 MRshow
/Times-Roman findfont 200 scalefont setfont
1.000 UL
LTb
LCb setrgbcolor
7897 840 M
0 63 V
0 2497 R
0 -63 V
stroke
7897 640 M
[ [(Times-Roman) 200.0 0.0 true true 0 ( 2)]
] -66.7 MCshow
/Times-Roman findfont 200 scalefont setfont
1.000 UL
LTb
LCb setrgbcolor
8665 840 M
0 63 V
0 2497 R
0 -63 V
stroke
8665 640 M
[ [(Times-Roman) 200.0 0.0 true true 0 ( 4)]
] -66.7 MCshow
/Times-Roman findfont 200 scalefont setfont
1.000 UL
LTb
LCb setrgbcolor
9432 840 M
0 63 V
0 2497 R
0 -63 V
stroke
9432 640 M
[ [(Times-Roman) 200.0 0.0 true true 0 ( 6)]
] -66.7 MCshow
/Times-Roman findfont 200 scalefont setfont
1.000 UL
LTb
LCb setrgbcolor
10200 840 M
0 63 V
0 2497 R
0 -63 V
stroke
10200 640 M
[ [(Times-Roman) 200.0 0.0 true true 0 ( 8)]
] -66.7 MCshow
/Times-Roman findfont 200 scalefont setfont
1.000 UL
LTb
LCb setrgbcolor
10968 840 M
0 63 V
0 2497 R
0 -63 V
stroke
10968 640 M
[ [(Times-Roman) 200.0 0.0 true true 0 ( 10)]
] -66.7 MCshow
/Times-Roman findfont 200 scalefont setfont
1.000 UL
LTb
LCb setrgbcolor
11735 840 M
0 63 V
0 2497 R
0 -63 V
stroke
11735 640 M
[ [(Times-Roman) 200.0 0.0 true true 0 ( 12)]
] -66.7 MCshow
/Times-Roman findfont 200 scalefont setfont
1.000 UL
LTb
LCb setrgbcolor
12503 840 M
0 63 V
0 2497 R
0 -63 V
stroke
12503 640 M
[ [(Times-Roman) 200.0 0.0 true true 0 ( 14)]
] -66.7 MCshow
/Times-Roman findfont 200 scalefont setfont
1.000 UL
LTb
LCb setrgbcolor
1.000 UL
LTB
LCb setrgbcolor
7820 3400 N
0 -2560 V
5259 0 V
0 2560 V
-5259 0 V
Z stroke
1.000 UP
1.000 UL
LTb
LCb setrgbcolor
LCb setrgbcolor
7000 2120 M
currentpoint gsave translate -270 rotate 0 0 moveto
[ [(Times-Roman) 200.0 0.0 true true 0 (v)]
[(Times-Roman) 160.0 -60.0 true true 0 (drift)]
[(Times-Roman) 200.0 0.0 true true 0 ( \(km s)]
[(Times-Roman) 160.0 100.0 true true 0 (-1)]
[(Times-Roman) 200.0 0.0 true true 0 (\))]
] -66.7 MCshow
grestore
/Times-Roman findfont 200 scalefont setfont
LTb
LCb setrgbcolor
10449 340 M
[ [(Symbol) 200.0 0.0 true true 0 (r)]
[(Times-Roman) 200.0 0.0 true true 0 ( \(10)]
[(Times-Roman) 160.0 100.0 true true 0 (-19)]
[(Times-Roman) 200.0 0.0 true true 0 ( g cm)]
[(Times-Roman) 160.0 100.0 true true 0 (-3)]
[(Times-Roman) 200.0 0.0 true true 0 (\))]
] -86.7 MCshow
/Times-Roman findfont 200 scalefont setfont
LTb
% Begin plot #1
3.000 UL
LTb
LC3 setrgbcolor
LCb setrgbcolor
8660 3237 M
[ [(Times-Roman) 200.0 0.0 true true 0 (v)]
[(Times-Roman) 160.0 -60.0 true true 0 (hall,y)]
[(Times-Roman) 200.0 0.0 true true 0 ( )]
] -46.7 MRshow
/Times-Roman findfont 200 scalefont setfont
3.000 UL
LTb
LC3 setrgbcolor
8780 3237 M
543 0 V
7853 2895 M
4 0 V
5 -1 V
4 0 V
5 0 V
4 0 V
5 -1 V
4 0 V
5 0 V
4 -1 V
5 0 V
4 0 V
5 -1 V
5 0 V
5 0 V
4 0 V
5 -1 V
5 0 V
5 -1 V
5 0 V
4 0 V
5 -1 V
5 0 V
5 0 V
5 -1 V
5 0 V
5 0 V
6 -1 V
5 0 V
5 -1 V
5 0 V
5 -1 V
5 0 V
6 0 V
5 -1 V
5 0 V
6 -1 V
5 0 V
6 -1 V
5 0 V
6 -1 V
5 0 V
6 -1 V
5 0 V
6 -1 V
6 0 V
5 -1 V
6 0 V
6 -1 V
6 0 V
6 -1 V
6 -1 V
5 0 V
6 -1 V
6 0 V
6 -1 V
7 0 V
6 -1 V
6 -1 V
6 0 V
6 -1 V
6 -1 V
7 0 V
6 -1 V
6 -1 V
7 0 V
6 -1 V
7 -1 V
6 -1 V
7 0 V
6 -1 V
7 -1 V
7 0 V
6 -1 V
7 -1 V
7 -1 V
7 -1 V
7 0 V
7 -1 V
7 -1 V
7 -1 V
7 -1 V
7 -1 V
7 -1 V
7 0 V
7 -1 V
8 -1 V
7 -1 V
7 -1 V
8 -1 V
7 -1 V
8 -1 V
7 -1 V
8 -1 V
7 -1 V
8 -1 V
8 -1 V
7 -1 V
8 -1 V
8 -1 V
8 -1 V
8 -1 V
8 -2 V
8 -1 V
8 -1 V
8 -1 V
8 -1 V
9 -1 V
8 -2 V
8 -1 V
9 -1 V
8 -1 V
9 -2 V
8 -1 V
9 -1 V
8 -2 V
9 -1 V
9 -1 V
9 -2 V
9 -1 V
9 -1 V
8 -2 V
10 -1 V
9 -2 V
9 -1 V
9 -2 V
9 -1 V
9 -2 V
10 -1 V
9 -2 V
10 -1 V
9 -2 V
10 -2 V
9 -1 V
10 -2 V
10 -1 V
10 -2 V
10 -2 V
9 -2 V
10 -1 V
11 -2 V
10 -2 V
10 -2 V
10 -2 V
10 -1 V
11 -2 V
10 -2 V
11 -2 V
10 -2 V
11 -2 V
10 -2 V
11 -2 V
11 -2 V
11 -2 V
11 -2 V
11 -2 V
11 -3 V
11 -2 V
11 -2 V
11 -2 V
12 -2 V
11 -3 V
12 -2 V
11 -2 V
12 -3 V
11 -2 V
12 -2 V
12 -3 V
12 -2 V
12 -3 V
12 -2 V
12 -3 V
12 -2 V
12 -3 V
13 -3 V
12 -2 V
13 -3 V
12 -3 V
13 -2 V
13 -3 V
12 -3 V
13 -3 V
13 -3 V
13 -2 V
13 -3 V
13 -3 V
14 -3 V
13 -3 V
13 -3 V
14 -4 V
13 -3 V
14 -3 V
14 -3 V
14 -3 V
14 -4 V
14 -3 V
14 -3 V
14 -4 V
14 -3 V
14 -3 V
15 -4 V
14 -4 V
15 -3 V
14 -4 V
15 -3 V
15 -4 V
15 -4 V
15 -4 V
15 -3 V
15 -4 V
16 -4 V
15 -4 V
16 -4 V
15 -4 V
16 -4 V
16 -4 V
15 -4 V
16 -5 V
16 -4 V
17 -4 V
16 -4 V
16 -5 V
17 -4 V
16 -5 V
17 -4 V
17 -5 V
16 -4 V
17 -5 V
17 -5 V
18 -5 V
17 -4 V
17 -5 V
18 -5 V
17 -5 V
18 -5 V
18 -5 V
18 -6 V
18 -5 V
18 -5 V
18 -5 V
18 -6 V
19 -5 V
18 -6 V
19 -5 V
19 -6 V
19 -5 V
19 -6 V
19 -6 V
stroke 10321 2409 M
19 -6 V
19 -6 V
20 -5 V
19 -7 V
20 -6 V
20 -6 V
20 -6 V
20 -6 V
20 -7 V
20 -6 V
21 -6 V
20 -7 V
21 -7 V
21 -6 V
21 -7 V
21 -7 V
21 -7 V
21 -7 V
21 -7 V
22 -7 V
22 -7 V
21 -7 V
22 -8 V
23 -7 V
22 -8 V
22 -7 V
23 -8 V
22 -7 V
23 -8 V
23 -8 V
23 -8 V
23 -8 V
23 -8 V
24 -8 V
23 -9 V
24 -8 V
24 -9 V
24 -8 V
24 -9 V
24 -9 V
25 -8 V
24 -9 V
25 -9 V
25 -9 V
25 -10 V
25 -9 V
26 -9 V
25 -10 V
26 -9 V
26 -10 V
26 -10 V
26 -10 V
26 -10 V
26 -10 V
27 -10 V
27 -10 V
27 -10 V
27 -11 V
27 -11 V
27 -10 V
28 -11 V
28 -11 V
28 -11 V
28 -11 V
28 -11 V
28 -12 V
29 -11 V
29 -12 V
28 -12 V
30 -11 V
29 -12 V
29 -12 V
30 -13 V
30 -12 V
30 -12 V
30 -13 V
30 -13 V
31 -12 V
30 -13 V
31 -13 V
31 -14 V
32 -13 V
31 -14 V
32 -13 V
32 -14 V
32 -14 V
32 -14 V
32 -14 V
33 -14 V
33 -15 V
33 -14 V
33 -15 V
33 -15 V
34 -15 V
34 -15 V
34 -16 V
34 -15 V
35 -16 V
34 -16 V
35 -16 V
35 -16 V
% End plot #1
% Begin plot #2
stroke
1.000 UL
LTb
0.00 0.62 0.45 C
% End plot #2
2.000 UL
LTb
LCb setrgbcolor
1.000 UL
LTB
LCb setrgbcolor
7820 3400 N
0 -2560 V
5259 0 V
0 2560 V
-5259 0 V
Z stroke
1.000 UP
1.000 UL
LTb
LCb setrgbcolor
1.000 UL
LTb
LCb setrgbcolor
14180 840 M
63 0 V
5556 0 R
-63 0 V
stroke
14060 840 M
[ [(Times-Roman) 200.0 0.0 true true 0 (-9)]
] -66.7 MRshow
/Times-Roman findfont 200 scalefont setfont
1.000 UL
LTb
LCb setrgbcolor
14180 1124 M
63 0 V
5556 0 R
-63 0 V
stroke
14060 1124 M
[ [(Times-Roman) 200.0 0.0 true true 0 (-8)]
] -66.7 MRshow
/Times-Roman findfont 200 scalefont setfont
1.000 UL
LTb
LCb setrgbcolor
14180 1409 M
63 0 V
5556 0 R
-63 0 V
stroke
14060 1409 M
[ [(Times-Roman) 200.0 0.0 true true 0 (-7)]
] -66.7 MRshow
/Times-Roman findfont 200 scalefont setfont
1.000 UL
LTb
LCb setrgbcolor
14180 1693 M
63 0 V
5556 0 R
-63 0 V
stroke
14060 1693 M
[ [(Times-Roman) 200.0 0.0 true true 0 (-6)]
] -66.7 MRshow
/Times-Roman findfont 200 scalefont setfont
1.000 UL
LTb
LCb setrgbcolor
14180 1978 M
63 0 V
5556 0 R
-63 0 V
stroke
14060 1978 M
[ [(Times-Roman) 200.0 0.0 true true 0 (-5)]
] -66.7 MRshow
/Times-Roman findfont 200 scalefont setfont
1.000 UL
LTb
LCb setrgbcolor
14180 2262 M
63 0 V
5556 0 R
-63 0 V
stroke
14060 2262 M
[ [(Times-Roman) 200.0 0.0 true true 0 (-4)]
] -66.7 MRshow
/Times-Roman findfont 200 scalefont setfont
1.000 UL
LTb
LCb setrgbcolor
14180 2547 M
63 0 V
5556 0 R
-63 0 V
stroke
14060 2547 M
[ [(Times-Roman) 200.0 0.0 true true 0 (-3)]
] -66.7 MRshow
/Times-Roman findfont 200 scalefont setfont
1.000 UL
LTb
LCb setrgbcolor
14180 2831 M
63 0 V
5556 0 R
-63 0 V
stroke
14060 2831 M
[ [(Times-Roman) 200.0 0.0 true true 0 (-2)]
] -66.7 MRshow
/Times-Roman findfont 200 scalefont setfont
1.000 UL
LTb
LCb setrgbcolor
14180 3116 M
63 0 V
5556 0 R
-63 0 V
stroke
14060 3116 M
[ [(Times-Roman) 200.0 0.0 true true 0 (-1)]
] -66.7 MRshow
/Times-Roman findfont 200 scalefont setfont
1.000 UL
LTb
LCb setrgbcolor
14180 3400 M
63 0 V
5556 0 R
-63 0 V
stroke
14060 3400 M
[ [(Times-Roman) 200.0 0.0 true true 0 (0)]
] -66.7 MRshow
/Times-Roman findfont 200 scalefont setfont
1.000 UL
LTb
LCb setrgbcolor
14262 840 M
0 63 V
0 2497 R
0 -63 V
stroke
14262 640 M
[ [(Times-Roman) 200.0 0.0 true true 0 ( 2)]
] -66.7 MCshow
/Times-Roman findfont 200 scalefont setfont
1.000 UL
LTb
LCb setrgbcolor
15082 840 M
0 63 V
0 2497 R
0 -63 V
stroke
15082 640 M
[ [(Times-Roman) 200.0 0.0 true true 0 ( 4)]
] -66.7 MCshow
/Times-Roman findfont 200 scalefont setfont
1.000 UL
LTb
LCb setrgbcolor
15903 840 M
0 63 V
0 2497 R
0 -63 V
stroke
15903 640 M
[ [(Times-Roman) 200.0 0.0 true true 0 ( 6)]
] -66.7 MCshow
/Times-Roman findfont 200 scalefont setfont
1.000 UL
LTb
LCb setrgbcolor
16723 840 M
0 63 V
0 2497 R
0 -63 V
stroke
16723 640 M
[ [(Times-Roman) 200.0 0.0 true true 0 ( 8)]
] -66.7 MCshow
/Times-Roman findfont 200 scalefont setfont
1.000 UL
LTb
LCb setrgbcolor
17543 840 M
0 63 V
0 2497 R
0 -63 V
stroke
17543 640 M
[ [(Times-Roman) 200.0 0.0 true true 0 ( 10)]
] -66.7 MCshow
/Times-Roman findfont 200 scalefont setfont
1.000 UL
LTb
LCb setrgbcolor
18363 840 M
0 63 V
0 2497 R
0 -63 V
stroke
18363 640 M
[ [(Times-Roman) 200.0 0.0 true true 0 ( 12)]
] -66.7 MCshow
/Times-Roman findfont 200 scalefont setfont
1.000 UL
LTb
LCb setrgbcolor
19184 840 M
0 63 V
0 2497 R
0 -63 V
stroke
19184 640 M
[ [(Times-Roman) 200.0 0.0 true true 0 ( 14)]
] -66.7 MCshow
/Times-Roman findfont 200 scalefont setfont
1.000 UL
LTb
LCb setrgbcolor
1.000 UL
LTB
LCb setrgbcolor
14180 3400 N
0 -2560 V
5619 0 V
0 2560 V
-5619 0 V
Z stroke
1.000 UP
1.000 UL
LTb
LCb setrgbcolor
LCb setrgbcolor
13720 2120 M
currentpoint gsave translate -270 rotate 0 0 moveto
[ [(Times-Roman) 200.0 0.0 true true 0 (v)]
[(Times-Roman) 160.0 -60.0 true true 0 (drift)]
[(Times-Roman) 200.0 0.0 true true 0 ( \(km s)]
[(Times-Roman) 160.0 100.0 true true 0 (-1)]
[(Times-Roman) 200.0 0.0 true true 0 (\))]
] -66.7 MCshow
grestore
/Times-Roman findfont 200 scalefont setfont
LTb
LCb setrgbcolor
16989 340 M
[ [(Symbol) 200.0 0.0 true true 0 (r)]
[(Times-Roman) 200.0 0.0 true true 0 ( \(10)]
[(Times-Roman) 160.0 100.0 true true 0 (-19)]
[(Times-Roman) 200.0 0.0 true true 0 ( g cm)]
[(Times-Roman) 160.0 100.0 true true 0 (-3)]
[(Times-Roman) 200.0 0.0 true true 0 (\))]
] -86.7 MCshow
/Times-Roman findfont 200 scalefont setfont
LTb
% Begin plot #1
3.000 UL
LTb
LC1 setrgbcolor
LCb setrgbcolor
14900 3237 M
[ [(Times-Roman) 200.0 0.0 true true 0 (v)]
[(Times-Roman) 160.0 -60.0 true true 0 (ion,x)]
] -46.7 MRshow
/Times-Roman findfont 200 scalefont setfont
3.000 UL
LTb
LC1 setrgbcolor
15020 3237 M
543 0 V
14215 3078 M
5 -2 V
5 -2 V
4 -2 V
5 -2 V
5 -2 V
5 -2 V
5 -2 V
4 -2 V
5 -2 V
5 -2 V
5 -2 V
5 -2 V
5 -3 V
5 -2 V
5 -2 V
5 -2 V
5 -2 V
6 -2 V
5 -2 V
5 -3 V
5 -2 V
6 -2 V
5 -2 V
5 -3 V
6 -2 V
5 -2 V
5 -2 V
6 -3 V
5 -2 V
6 -2 V
6 -3 V
5 -2 V
6 -2 V
6 -3 V
5 -2 V
6 -3 V
6 -2 V
6 -2 V
5 -3 V
6 -2 V
6 -3 V
6 -2 V
6 -3 V
6 -2 V
6 -3 V
6 -2 V
7 -3 V
6 -3 V
6 -2 V
6 -3 V
7 -2 V
6 -3 V
6 -3 V
7 -2 V
6 -3 V
7 -3 V
6 -2 V
7 -3 V
6 -3 V
7 -3 V
7 -2 V
6 -3 V
7 -3 V
7 -3 V
7 -3 V
7 -3 V
7 -2 V
7 -3 V
7 -3 V
7 -3 V
7 -3 V
7 -3 V
7 -3 V
7 -3 V
7 -3 V
8 -3 V
7 -3 V
8 -3 V
7 -3 V
7 -3 V
8 -3 V
8 -4 V
7 -3 V
8 -3 V
8 -3 V
7 -3 V
8 -3 V
8 -4 V
8 -3 V
8 -3 V
8 -4 V
8 -3 V
8 -3 V
8 -3 V
8 -4 V
9 -3 V
8 -4 V
8 -3 V
9 -4 V
8 -3 V
9 -3 V
8 -4 V
9 -3 V
8 -4 V
9 -4 V
9 -3 V
9 -4 V
9 -3 V
8 -4 V
9 -4 V
9 -3 V
10 -4 V
9 -4 V
9 -4 V
9 -3 V
9 -4 V
10 -4 V
9 -4 V
10 -4 V
9 -3 V
10 -4 V
9 -4 V
10 -4 V
10 -4 V
10 -4 V
9 -4 V
10 -4 V
10 -4 V
10 -4 V
11 -4 V
10 -4 V
10 -5 V
10 -4 V
11 -4 V
10 -4 V
11 -4 V
10 -5 V
11 -4 V
10 -4 V
11 -5 V
11 -4 V
11 -4 V
11 -5 V
11 -4 V
11 -5 V
11 -4 V
11 -5 V
11 -4 V
12 -5 V
11 -4 V
12 -5 V
11 -4 V
12 -5 V
11 -5 V
12 -5 V
12 -4 V
12 -5 V
12 -5 V
12 -5 V
12 -4 V
12 -5 V
12 -5 V
13 -5 V
12 -5 V
13 -5 V
12 -5 V
13 -5 V
13 -5 V
12 -5 V
13 -5 V
13 -6 V
13 -5 V
13 -5 V
13 -5 V
14 -5 V
13 -6 V
13 -5 V
14 -5 V
13 -6 V
14 -5 V
14 -6 V
14 -5 V
14 -6 V
14 -5 V
14 -6 V
14 -5 V
14 -6 V
14 -6 V
15 -5 V
14 -6 V
15 -6 V
15 -5 V
14 -6 V
15 -6 V
15 -6 V
15 -6 V
15 -6 V
15 -6 V
16 -6 V
15 -6 V
16 -6 V
15 -6 V
16 -6 V
16 -6 V
16 -7 V
16 -6 V
16 -6 V
16 -6 V
16 -7 V
16 -6 V
17 -7 V
16 -6 V
17 -7 V
17 -6 V
17 -7 V
17 -6 V
17 -7 V
17 -7 V
17 -6 V
17 -7 V
18 -7 V
17 -7 V
18 -7 V
18 -7 V
18 -6 V
18 -7 V
18 -7 V
18 -8 V
18 -7 V
19 -7 V
18 -7 V
19 -7 V
19 -7 V
19 -8 V
19 -7 V
19 -7 V
19 -8 V
19 -7 V
20 -8 V
19 -7 V
20 -8 V
20 -8 V
20 -7 V
20 -8 V
20 -8 V
20 -7 V
21 -8 V
stroke 16852 2023 M
20 -8 V
21 -8 V
21 -8 V
21 -8 V
21 -8 V
21 -8 V
21 -8 V
22 -9 V
21 -8 V
22 -8 V
22 -9 V
22 -8 V
22 -8 V
22 -9 V
22 -8 V
23 -9 V
22 -9 V
23 -8 V
23 -9 V
23 -9 V
23 -8 V
24 -9 V
23 -9 V
24 -9 V
23 -9 V
24 -9 V
24 -9 V
24 -9 V
25 -10 V
24 -9 V
25 -9 V
24 -10 V
25 -9 V
25 -9 V
26 -10 V
25 -10 V
25 -9 V
26 -10 V
26 -10 V
26 -9 V
26 -10 V
26 -10 V
27 -10 V
26 -10 V
27 -10 V
27 -10 V
27 -10 V
27 -11 V
28 -10 V
27 -10 V
28 -11 V
28 -10 V
28 -11 V
28 -10 V
29 -11 V
28 -10 V
29 -11 V
29 -11 V
29 -11 V
29 -11 V
30 -11 V
29 -11 V
30 -11 V
30 -11 V
30 -11 V
31 -12 V
30 -11 V
31 -11 V
31 -12 V
31 -11 V
31 -12 V
32 -12 V
31 -11 V
32 -12 V
32 -12 V
32 -12 V
33 -12 V
33 -12 V
32 -12 V
33 -12 V
34 -13 V
33 -12 V
34 -13 V
33 -12 V
34 -13 V
35 -12 V
34 -13 V
35 -13 V
35 -12 V
35 -13 V
35 -13 V
35 -13 V
36 -13 V
36 -14 V
36 -13 V
36 -13 V
37 -14 V
37 -13 V
37 -14 V
37 -13 V
38 -14 V
% End plot #1
% Begin plot #2
stroke
1.000 UL
LTb
0.00 0.62 0.45 C
% End plot #2
2.000 UL
LTb
LCb setrgbcolor
1.000 UL
LTB
LCb setrgbcolor
14180 3400 N
0 -2560 V
5619 0 V
0 2560 V
-5619 0 V
Z stroke
1.000 UP
1.000 UL
LTb
LCb setrgbcolor
stroke
grestore
end
showpage
%%Trailer
%%DocumentFonts: Symbol Times-Roman
